flight,min_dist,altitude_at_min,min_lon,min_lat,time
AVA209,570.9941716166903,3925,-71.09840086038143,42.40988158387598,2018-05-01 00:34:02 EDT
SCX8992,2019.7992777825943,4375,-71.097767,42.405923,2018-05-01 00:41:58 EDT
NKS103,1120.4116460958285,3150,-71.09814151867462,42.40838341449251,2018-05-01 05:09:11 EDT
UAL203,1396.0650200478485,4125,-71.09449708460967,42.41395243571874,2018-05-01 05:13:36 EDT
SWA409,1297.3656967063764,4250,-71.09508620549258,42.41401694684184,2018-05-01 05:18:29 EDT
AAL897,629.663975680128,3275,-71.09871854062374,42.40973655132024,2018-05-01 05:21:19 EDT
AAL1300,1216.8601543753975,2550,-71.09514538907827,42.4137492607587,2018-05-01 05:56:55 EDT
JBU1077,1134.3306588430687,3225,-71.09551039507417,42.413698736386024,2018-05-01 06:11:42 EDT
JBU597,1171.3141069940245,3075,-71.09542433348413,42.41377802030053,2018-05-01 06:33:34 EDT
JBU133,844.975628962135,2850,-71.096489,42.413278,2018-05-01 06:46:50 EDT
DAL2488,972.4740301942628,3300,-71.0958809146415,42.41334689582821,2018-05-01 07:21:44 EDT
JBU1031,1376.2682915310395,2725,-71.09933531186647,42.40773981529184,2018-05-01 07:25:33 EDT
JBU1039,511.8159398589572,2825,-71.09855812991478,42.410048182203724,2018-05-01 07:42:25 EDT
JBU2819,188.3841132201545,2825,-71.09850140867863,42.41093412640894,2018-05-01 07:45:18 EDT
AAL2303,780.8728359490731,2475,-71.09862608494258,42.40931315942064,2018-05-01 08:15:11 EDT
AAL333,737.2103877104188,2725,-71.098522,42.409424,2018-05-01 09:15:47 EDT
JBU619,451.7128431468912,2600,-71.09854544950772,42.41021253474054,2018-05-01 09:29:18 EDT
JBU269,1346.8430944502195,2625,-71.09824979643948,42.40775903649979,2018-05-01 09:39:16 EDT
CMP312,2221.340482451426,3575,-71.098335,42.40535,2018-05-01 10:02:03 EDT
2196,2455.1361464432575,2600,-71.097336,42.404755,2018-05-01 10:18:33 EDT
JBU487,562.8234790549308,2475,-71.09883504335298,42.4099370146153,2018-05-01 11:14:23 EDT
ASA613,994.0259926038351,2675,-71.09607135753265,42.41355195034822,2018-05-01 11:17:15 EDT
JBU1833,824.037630416221,3e3,-71.09658095461346,42.413255298825916,2018-05-01 11:53:44 EDT
UAL2809,240.95739750613586,3925,-71.098594832479165,42.41080030144394,2018-05-01 12:18:14 EDT
UAL652,825.7927775261404,3025,-71.09868095683342,42.409193124380394,2018-05-01 12:23:31 EDT
AAL1398,1004.3097805435316,3225,-71.098272,42.408691,2018-05-01 12:38:01 EDT
CFMFL,1419.5188050422591,4575,-71.09503225101652,42.41442931114311,2018-05-01 12:41:50 EDT
AAL2607,716.7771850663037,2650,-71.0985981007963,42.409487602887445,2018-05-01 12:44:42 EDT
NKS773,1933.136864258563,4450,-71.09337179113982,42.41521435747913,2018-05-01 12:51:26 EDT
1775,428.20141328060004,3225,-71.09822961478694,42.41027972917084,2018-05-01 12:57:45 EDT
AAL1982,1447.4908895605931,2600,-71.09821708868125,42.407484104614866,2018-05-01 12:58:57 EDT
AAL1006,1688.2895665105798,2725,-71.09796924105366,42.40683356283631,2018-05-01 13:00:50 EDT
LXJ585,2066.0487045451337,4175,-71.098022,42.405783,2018-05-01 13:08:53 EDT
SWA5779,793.0436364797087,2800,-71.098772,42.409286,2018-05-01 13:12:06 EDT
N659BX,196.81933761531695,5475,-71.09846984429619,42.410908226372015,2018-05-01 13:15:47 EDT
2162,558.4316825951846,4500,-71.09876841073539,42.409939701350375,2018-05-01 13:19:36 EDT
UAL1564,1129.1252947758674,3825,-71.09549723114755,42.41366971658721,2018-05-01 13:22:34 EDT
AAL1996,1539.6192670442347,4425,-71.098086,42.407227,2018-05-01 13:27:04 EDT
RPA6065,936.6128354931856,4100,-71.098397,42.408875,2018-05-01 13:29:28 EDT
1281,38.81874126617778,4075,-71.09837932342366,42.411549589666784,2018-05-01 13:36:13 EDT
X0J757,1411.084292544689,4375,-71.094652,42.414139,2018-05-01 13:37:34 EDT
JBU1749,351.00637988680546,4225,-71.099619,42.411789,2018-05-01 13:43:02 EDT
UAL259,116.17111495961234,3175,-71.09849117391907,42.411133343959094,2018-05-01 13:45:25 EDT
DAL9760,1641.5266163615595,5400,-71.098725,42.406947,2018-05-01 13:51:13 EDT
JAL7,932.0590552783162,3425,-71.09579472473872,42.41311799302097,2018-05-01 13:53:11 EDT
JBU6801,828.213040052499,4775,-71.09626588763768,42.41307234276664,2018-05-01 13:55:12 EDT
AAL2184,1138.517507799537,2600,-71.09544100307097,42.413665150803624,2018-05-01 13:57:39 EDT
DAL981,248.518174646973,3125,-71.09807299350663,42.412079774133836,2018-05-01 14:01:22 EDT
SWA5437,1016.623867275484,3125,-71.098789,42.40867,2018-05-01 14:02:18 EDT
JBU521,1348.1885753436982,3125,-71.0982022090127,42.407756609986926,2018-05-01 14:05:51 EDT
JBU311,770.6575194449771,3600,-71.096399,42.412949,2018-05-01 14:09:09 EDT
AAL2170,1861.0107145966945,4325,-71.09815,42.406342,2018-05-01 14:10:46 EDT
AAL1211,1084.4860267465483,2475,-71.0989051374117,42.40849865668808,2018-05-01 14:15:13 EDT
N135RU,1119.8052005737293,4950,-71.09540567632712,42.41356571046723,2018-05-01 14:16:24 EDT
JBU1991,1338.1662717869601,2825,-71.09821,42.407776,2018-05-01 14:36:18 EDT
AAL1422,1743.0457217048665,4e3,-71.098082886114085,42.40667835632623,2018-05-01 14:42:29 EDT
JBU2267,170.49445747393247,3750,-71.09852474815479,42.41098662331931,2018-05-01 14:46:17 EDT
SWA5390,1355.8201638615587,3225,-71.09459231724239,42.41386526952029,2018-05-01 14:51:45 EDT
AAL1271,1643.1429557598212,2275,-71.097898,42.406952,2018-05-01 15:02:29 EDT
DAL1366,1120.7083462872017,2700,-71.095276,42.413465,2018-05-01 15:05:08 EDT
DAL2832,675.5740518911409,2800,-71.098661,42.409601,2018-05-01 15:07:45 EDT
JBU1115,56.926549941849395,2925,-71.0983499375256,42.411595488719584,2018-05-01 15:11:48 EDT
SWA2038,639.5336330643564,3350,-71.09870314847933,42.40970780585704,2018-05-01 15:16:13 EDT
N529QS,2336.2863393315174,5925,-71.09732,42.405085,2018-05-01 15:18:14 EDT
UAL511,110.56092068517069,3975,-71.09837718296079,42.41174702657726,2018-05-01 15:17:23 EDT
AAL2142,736.4961544779185,4700,-71.09816513238175,42.409436217822744,2018-05-01 15:19:46 EDT
AAL2418,1925.835787512762,3325,-71.097898,42.406174,2018-05-01 15:23:09 EDT
JBU069,865.9164031543536,2975,-71.09820259343529,42.40907877909853,2018-05-01 15:24:58 EDT
N797CB,1674.5596753247496,6725,-71.09815,42.406854,2018-05-01 15:30:04 EDT
N513DL,507.1557410812691,5625,-71.098647,42.410065,2018-05-01 15:31:37 EDT
UAL1598,624.6059171442262,3100,-71.0970058334735,42.41280798214947,2018-05-01 15:36:02 EDT
XOJ793,789.5461325877974,5775,-71.098981,42.409321,2018-05-01 15:39:41 EDT
UAL448,1088.794504060722,2900,-71.0956528218476,42.41362646158575,2018-05-01 15:44:20 EDT
EJM46,809.2925910509744,6925,-71.09867080672818,42.409237810941825,2018-05-01 15:45:16 EDT
DAL2364,1704.2251558439984,3025,-71.098335,42.406769,2018-05-01 15:47:03 EDT
NKS423,1103.865614246174,4150,-71.09836000638705,42.408422726715614,2018-05-01 15:49:04 EDT
JBU633,996.0312852431699,2750,-71.0958168074265,42.41339082238468,2018-05-01 15:56:06 EDT
EJA143,961.3269936880522,5800,-71.09845879624315,42.40881312390883,2018-05-01 16:03:44 EDT
SWA5626,454.09941154394687,3400,-71.098522,42.410202,2018-05-01 16:08:46 EDT
2119,355.24071255986365,4400,-71.09829667676262,42.4104756218492,2018-05-01 16:11:52 EDT
ENY3970,951.9726647006958,4600,-71.09617,42.413465,2018-05-01 16:12:47 EDT
DAL2626,894.0181320053146,2575,-71.098597,42.408996,2018-05-01 16:13:46 EDT
AAL1776,1747.756994249499,4e3,-71.09771,42.406677,2018-05-01 16:15:11 EDT
AAL1370,598.3915740761269,2750,-71.09857996114764,42.409811665214036,2018-05-01 16:20:25 EDT
JBU1969,1300.7106927311427,3275,-71.0980287786536,42.40789441823964,2018-05-01 16:29:44 EDT
AAL1543,1876.5002413282225,2675,-71.098406,42.406296,2018-05-01 16:35:07 EDT
ASA33,1304.2075661346448,2700,-71.094964,42.413956,2018-05-01 16:40:50 EDT
ASP524,2007.09375353702,6100,-71.09209667013376,42.41436210161755,2018-05-01 16:46:21 EDT
EJA958,923.4291363232558,5425,-71.09846148889734,42.40891693509432,2018-05-01 16:47:28 EDT
CHH7962,1089.7060717558797,3500,-71.09540247499866,42.41344208211797,2018-05-01 16:52:42 EDT
JBU19,254.198118977919,2750,-71.09850236271845,42.41075271074287,2018-05-01 17:00:20 EDT
DAL1523,1166.3548567497503,3225,-71.095276,42.413651,2018-05-01 17:03:38 EDT
2149,44.94132686628402,4400,-71.09840281831138,42.41156811161128,2018-05-01 17:08:34 EDT
JBU1849,96.72504262745504,4775,-71.09847,42.411184,2018-05-01 17:14:17 EDT
UAL2045,78.72796806341363,3475,-71.09844078165736,42.41123106207373,2018-05-01 17:17:00 EDT
2146,120.66477290989324,4800,-71.09851825496843,42.41112536771404,2018-05-01 17:19:58 EDT
ASA1367,641.8684660580794,2650,-71.098661,42.409694,2018-05-01 17:20:50 EDT
CHH482,1124.9944968517325,3425,-71.09531227641708,42.413512505744954,2018-05-01 17:22:08 EDT
DLH423,2202.8990278956767,1850,-71.097461,42.405441,2018-05-01 17:23:44 EDT
DAL256,1067.3147245329085,2150,-71.0956256623254,42.413525784637784,2018-05-01 17:28:34 EDT
AAL1780,1401.6354264049312,3350,-71.098406,42.407599,2018-05-01 17:31:09 EDT
RPA6047,994.1935738494909,3700,-71.09796,42.408737,2018-05-01 17:33:34 EDT
DAL1707,483.99170954721035,4450,-71.09877008102889,42.41014749830001,2018-05-01 17:34:31 EDT
JBU1907,125.70619307088892,3e3,-71.09848041259482,42.411105341215524,2018-05-01 17:35:37 EDT
DAL105,464.1229895212197,2875,-71.09855964704522,42.41017934029288,2018-05-01 17:38:07 EDT
SWA5566,1433.0656070065136,3700,-71.09440547606995,42.41402902305896,2018-05-01 17:39:00 EDT
N420EH,1372.024881060717,5200,-71.097511,42.407739,2018-05-01 17:40:03 EDT
AAL1530,109.39895623656955,2825,-71.09827845477582,42.41172959909386,2018-05-01 17:44:24 EDT
JBU1331,52.347652909430124,4625,-71.09834129041582,42.411580393426405,2018-05-01 17:46:50 EDT
JBU2969,2321.9254869602037,3775,-71.097895,42.405085,2018-05-01 17:47:44 EDT
JBU1351,1322.202592293297,2825,-71.098147,42.407822,2018-05-01 17:49:13 EDT
IBE6166,868.4845384484508,2225,-71.09811851816168,42.40907645863212,2018-05-01 17:50:37 EDT
DAL1059,1218.201215040275,2675,-71.09518670575895,42.41378594042316,2018-05-01 17:52:17 EDT
DAL2533,445.1493690182799,3375,-71.098681376957515,42.41024335314242,2018-05-01 17:54:01 EDT
EIN13W,889.9951015528319,2600,-71.096553,42.413465,2018-05-01 17:59:15 EDT
AAL1430,757.7304814867173,2575,-71.098533,42.409368,2018-05-01 18:06:32 EDT
ASA15,1250.6743863545103,2600,-71.0951607157109,42.41389234830972,2018-05-01 18:09:36 EDT
JBU687,370.5781531629069,2500,-71.09855894496141,42.41043671920798,2018-05-01 18:11:02 EDT
JBU1159,348.4340428508778,4325,-71.09858050763289,42.410499804495096,2018-05-01 18:14:49 EDT
2145,406.5432235248991,4200,-71.09867910593132,42.41035040864184,2018-05-01 18:16:08 EDT
JBU6803,992.7753944663465,5275,-71.09575052644304,42.41332868060983,2018-05-01 18:18:36 EDT
JBU1011,1328.202223190042,3250,-71.09494796434956,42.4140356197453,2018-05-01 18:20:21 EDT
DAL2882,88.54467725017328,3850,-71.09833602396975,42.411682031907,2018-05-01 18:22:18 EDT
COK000,1078.821957665389,4325,-71.09544836745314,42.413435089754266,2018-05-01 18:23:07 EDT
UAL717,543.3719134442509,3150,-71.098725,42.409973,2018-05-01 18:25:49 EDT
GTH999,631.2373188445553,5675,-71.09860392162099,42.40972288238244,2018-05-01 18:27:51 EDT
NKS615,1362.0785965990406,3425,-71.09798790744794,42.40772827671344,2018-05-01 18:31:39 EDT
JBU405,132.19262191431045,2950,-71.098335,42.411804,2018-05-01 18:33:42 EDT
AAL305,1033.5931756580478,2375,-71.09903459365275,42.40865339173738,2018-05-01 18:37:25 EDT
NKS616,1067.1043323263946,3725,-71.09565,42.413544,2018-05-01 18:38:32 EDT
UAL2400,989.2790267744232,4975,-71.09588190330727,42.41341148808695,2018-05-01 18:41:59 EDT
AAL1172,1847.748180855044,2825,-71.097895,42.406389,2018-05-01 18:43:35 EDT
DAL1257,723.656753551441,2525,-71.09860522790726,42.40946910241688,2018-05-01 18:45:02 EDT
TAP218,1345.1605948629876,2500,-71.09805113491068,42.407771141515425,2018-05-01 19:00:35 EDT
KAP444,100.7001822718024,3725,-71.09872363248762,42.41158880792433,2018-05-02 09:28:10 EDT
N435DH,664.6288157153572,1075,-71.10064476348406,42.41068537244642,2018-05-02 17:04:19 EDT
KAP426,1548.1328837916944,3600,-71.09296921091749,42.41008085464807,2018-05-04 09:25:33 EDT
KAP128,728.2243702197393,2200,-71.09611824093439,42.41038426038742,2018-05-04 09:28:34 EDT
CPA811,1007.7551767713081,3500,-71.095838,42.413452,2018-05-05 02:08:16 EDT
AAL810,545.7068884239759,3050,-71.09871956910573,42.409968978590385,2018-05-05 05:15:21 EDT
AAL1637,1157.330142802462,2875,-71.09533063614663,42.413656244344104,2018-05-05 06:08:45 EDT
AAL1580,1248.488492728336,2925,-71.09810813884626,42.40803359148993,2018-05-05 06:11:21 EDT
JBU1077,1408.0652476876967,3200,-71.09486089455298,42.4142764965568,2018-05-05 06:35:34 EDT
JBU597,1362.3507830729839,3325,-71.095338,42.414413,2018-05-05 06:37:17 EDT
DAL2767,787.8121844447369,3475,-71.09621387368458,42.41287188145671,2018-05-05 06:51:11 EDT
JBU287,550.3728213244033,4350,-71.09706753315669,42.41258335372289,2018-05-05 06:57:36 EDT
AAL2538,1707.256664282726,3650,-71.098022,42.406769,2018-05-05 06:59:27 EDT
ASA1351,1256.4512758468263,2800,-71.09535782413272,42.414047705991074,2018-05-05 07:04:08 EDT
ASA25,1136.142477267299,3275,-71.09535980988802,42.41359502343073,2018-05-05 07:20:30 EDT
DAL2651,1213.890403954722,3225,-71.09504945108901,42.41366075080111,2018-05-05 07:28:44 EDT
AAL1404,1183.993446025495,3525,-71.0952247582768,42.41368031892346,2018-05-05 07:30:46 EDT
JBU2819,845.9213091966249,3e3,-71.09628663444992,42.413153408525744,2018-05-05 07:33:05 EDT
DAL950,414.4675138231313,3350,-71.09846327625539,42.41031097616319,2018-05-05 07:36:35 EDT
AAL2303,1190.2825648994774,2950,-71.09531620025494,42.41377332131955,2018-05-05 08:31:44 EDT
JBU1147,678.8104880582773,3500,-71.09831199748427,42.40958764097629,2018-05-05 08:32:59 EDT
DAL567,1926.6261452129522,3250,-71.09800344537553,42.406178110918944,2018-05-05 09:11:08 EDT
AAL333,1091.1228208995217,2725,-71.09565,42.413635,2018-05-05 09:43:05 EDT
CMP312,1507.2682098076834,3050,-71.09840419414276,42.407318001814616,2018-05-05 09:46:57 EDT
JBU619,21.762221988625782,3375,-71.09839621922187,42.41150423592273,2018-05-05 09:51:15 EDT
ASA613,1481.6306696994554,2925,-71.09456970971772,42.414350141941355,2018-05-05 11:05:58 EDT
AAL1509,1578.2608776793452,2650,-71.097835,42.407135,2018-05-05 11:11:36 EDT
AAL2665,1185.249121578956,3e3,-71.09523412202893,42.413692526111696,2018-05-05 11:22:03 EDT
JBU487,698.823007153941,2450,-71.09673955979028,42.41291104251705,2018-05-05 11:30:14 EDT
DAL341,1234.6430302914684,2800,-71.095026,42.413727,2018-05-05 11:55:12 EDT
JBU1833,1322.3609009801087,2875,-71.096337,42.414734,2018-05-05 12:02:50 EDT
AAL1398,1192.8257316193813,2575,-71.09516746882696,42.413670672734355,2018-05-05 12:22:19 EDT
JBU1095,276.16166836949964,3325,-71.09846530191994,42.41219983708781,2018-05-05 12:44:55 EDT
JBU1671,1028.5898856003087,3050,-71.098342,42.408623,2018-05-05 12:49:34 EDT
N435DH,430.88837572354305,875,-71.0969949337862,42.41200005777197,2018-05-05 20:36:04 EDT
KAP305,1001.431200742221,2e3,-71.0984734949366,42.408703482287116,2018-05-07 13:38:29 EDT
SXL6,1455.7747920251156,3075,-71.099583,42.407547,2018-05-07 20:57:38 EDT
KAP106,1780.404114295911,2700,-71.10470392930537,42.40998365444389,2018-05-09 10:01:47 EDT
KAP,22.66456637473685,1600,-71.0983805455049,42.41178807422691,2018-05-10 13:09:58 EDT
N435DH,190.33973564919972,1025,-71.09900271197472,42.41116775976667,2018-05-10 20:11:58 EDT
AAL810,401.23844591165414,3300,-71.09856810988386,42.410353003248986,2018-05-11 05:15:48 EDT
AAL2264,1038.2757009766267,2875,-71.09564054820609,42.41342394367436,2018-05-11 06:08:37 EDT
AAL1580,2242.2091459329345,2925,-71.097898,42.405304,2018-05-11 06:11:43 EDT
JBU1077,84.12732808930437,2925,-71.09846273057289,42.41121863060287,2018-05-11 06:31:40 EDT
AAL2320,363.6133273258522,3425,-71.09854562642593,42.41045483145681,2018-05-11 06:35:39 EDT
JBU597,1104.6203788991095,3e3,-71.09554702671647,42.41361190566978,2018-05-11 06:40:21 EDT
AAL2538,1839.5364362646344,2875,-71.098085,42.406403,2018-05-11 07:05:13 EDT
ASA1351,644.287158485532,2750,-71.09871548866334,42.40969585692665,2018-05-11 07:08:03 EDT
JBU2819,417.0486558751416,3050,-71.09853592756716,42.41030719262355,2018-05-11 07:23:28 EDT
ASA25,737.1331225535691,2900,-71.09639062757299,42.412809474619785,2018-05-11 07:30:38 EDT
AAL166,696.032978508598,2725,-71.09862501735813,42.40954615239137,2018-05-11 07:34:17 EDT
JBU287,322.22999246797866,3050,-71.09856728910253,42.41057088724172,2018-05-11 07:35:16 EDT
DAL2651,996.3647804269611,2600,-71.095851,42.413418,2018-05-11 07:51:24 EDT
JBU773,1164.1530902676054,2675,-71.09847,42.408251,2018-05-11 08:05:19 EDT
AAL2303,641.9480254933331,2650,-71.098709,42.409698,2018-05-11 08:24:51 EDT
AAL333,367.183578655837,2600,-71.09864411028113,42.410455247426306,2018-05-11 09:10:41 EDT
ASA1363,453.00390398522273,2975,-71.098397,42.410202,2018-05-11 09:14:00 EDT
JBU493,815.1689203791667,2625,-71.09860875230093,42.40921808992837,2018-05-11 09:15:02 EDT
AAL2459,961.2484139983454,2925,-71.095787,42.413232,2018-05-11 09:28:42 EDT
JBU269,530.5288500294666,3600,-71.09798681052443,42.41002556861764,2018-05-11 09:34:38 EDT
CMP312,1904.9215461281306,2975,-71.0981980370951,42.40623144019789,2018-05-11 09:37:23 EDT
JBU771,1238.1422062509284,2675,-71.0983513327722,42.408055117752504,2018-05-11 09:54:58 EDT
JBU401,260.13529610927725,2850,-71.09851087128096,42.41073703505201,2018-05-11 09:58:07 EDT
JBU133,202.6400947274895,2625,-71.098397,42.410889,2018-05-11 10:06:23 EDT
JBU619,286.8026964941811,2650,-71.098597,42.410671,2018-05-11 10:18:20 EDT
AAL2251,792.5773462549098,2575,-71.09855552082054,42.409277719048575,2018-05-11 10:35:28 EDT
ASA613,130.37315446088195,2725,-71.0981707516631,42.41175727744708,2018-05-11 11:08:05 EDT
JBU487,354.25087736577876,2800,-71.09850757963915,42.410477999578816,2018-05-11 11:31:57 EDT
JBU1833,682.9105148008376,3350,-71.09800168952437,42.4132909938086,2018-05-11 11:52:48 EDT
DAL341,875.7419702132474,2425,-71.09613237459868,42.41315799169332,2018-05-11 12:06:58 EDT
AAL1240,1261.4157015177607,2825,-71.09507947251097,42.413874169019536,2018-05-11 12:13:40 EDT
AAL1398,391.79570954009546,2575,-71.098647,42.410385,2018-05-11 12:38:44 EDT
RPA6063,1430.803453621647,3650,-71.097773,42.407547,2018-05-11 12:56:07 EDT
N622PC,1062.967216804233,4950,-71.09879869389984,42.408549077439844,2018-05-11 12:57:05 EDT
NKS773,1236.682810486433,2775,-71.09532489219801,42.413953901752876,2018-05-11 12:58:20 EDT
DAL1762,934.3936247110738,2325,-71.0989765601763,42.408921611120405,2018-05-11 13:00:07 EDT
EJA349,1545.2443140749563,4550,-71.097384,42.407273000000004,2018-05-11 13:06:49 EDT
JBU1735,1028.157285032082,2600,-71.09644075703365,42.41385790354466,2018-05-11 13:09:19 EDT
1775,430.37005683394665,3450,-71.09868849664835,42.41028535504818,2018-05-11 13:13:06 EDT
JBU741,537.0054778205784,3425,-71.09861639252918,42.409982950374165,2018-05-11 13:15:09 EDT
NKS857,393.50153752847115,3575,-71.0986412202455,42.41038177694431,2018-05-11 13:16:22 EDT
SWA550,1623.6916627876321,3750,-71.098772,42.406998,2018-05-11 13:18:05 EDT
UAL1564,741.6034143065378,3975,-71.09715081214813,42.41325213966915,2018-05-11 13:19:34 EDT
RPA6065,1396.4089443223338,3575,-71.09822340371569,42.4076238927745,2018-05-11 13:21:10 EDT
SWA5779,771.5772565031735,3175,-71.098584,42.409332,2018-05-11 13:22:24 EDT
AAL2129,626.6076366129005,3825,-71.09857383443703,42.40973384238399,2018-05-11 13:23:50 EDT
AAL1434,358.1375086498463,2925,-71.09861379865858,42.41047659005716,2018-05-11 13:26:01 EDT
JBU157,586.355304388997,3750,-71.09780632512269,42.412988435337354,2018-05-11 13:29:52 EDT
JBU117,502.265755341477,3750,-71.09852177602197,42.4100724690615,2018-05-11 13:39:35 EDT
UAL259,509.0721074951378,3050,-71.09864323154808,42.41006226874248,2018-05-11 13:42:36 EDT
JAL7,1093.491849567487,3475,-71.09556784685216,42.41358432794111,2018-05-11 13:51:04 EDT
N800AL,810.3102229489075,5300,-71.09650205480057,42.41316217173948,2018-05-11 13:53:07 EDT
RPA6084,316.07212449625774,3350,-71.09807938971927,42.41227636813609,2018-05-11 13:55:18 EDT
AAL1199,270.4515240779622,2775,-71.09859819582844,42.41071835325357,2018-05-11 13:56:53 EDT
N923WC,431.5761880928803,4775,-71.09866904807433,42.410279507081384,2018-05-11 13:59:01 EDT
SWA5437,887.998928154378,3575,-71.098584,42.409012,2018-05-11 14:01:07 EDT
JBU2269,1062.895587773429,3175,-71.098278,42.40853,2018-05-11 14:02:28 EDT
DAL981,397.22276429385437,2750,-71.09848559488597,42.41035900754743,2018-05-11 14:03:52 EDT
N313ZP,1706.781195760355,5325,-71.09382409379212,42.41467010130234,2018-05-11 14:04:46 EDT
2170,720.1507908101536,4e3,-71.098605632271,42.40947875284041,2018-05-11 14:15:00 EDT
JBU1927,510.74014546375025,3575,-71.09858694684699,42.41005302777812,2018-05-11 14:19:10 EDT
JBU697,62.16904317012582,3450,-71.0983408271819,42.411608497600554,2018-05-11 14:20:25 EDT
LJY68,2304.7869574588317,5e3,-71.096961,42.405212,2018-05-11 14:22:50 EDT
JBU1991,1157.8563500211164,3050,-71.09823323897399,42.40827725105659,2018-05-11 14:24:11 EDT
RPA6067,1185.639531890924,3475,-71.09818651456922,42.4082026523871,2018-05-11 14:26:24 EDT
JU1059,50.45510958712956,4175,-71.09836093710635,42.41157946281774,2018-05-11 14:28:50 EDT
NKS467,554.298664272477,3275,-71.098533,42.409927,2018-05-11 14:30:02 EDT
JBU951,1029.029962019781,3075,-71.098533,42.408623,2018-05-11 14:44:12 EDT
AAL1422,1855.0171310701176,3700,-71.09821,42.406357,2018-05-11 14:46:54 EDT
SKV7675,957.1842141003315,3500,-71.09622251345179,42.413511963616585,2018-05-11 14:49:37 EDT
JBU1685,29.053170057524234,3375,-71.09844450445756,42.411370903429976,2018-05-11 14:52:36 EDT
EJA519,1118.173031549404,4850,-71.09533314854522,42.41350169426745,2018-05-11 14:52:56 EDT
RPA5871,133.71876636825937,3600,-71.09825774365942,42.41179462011882,2018-05-11 14:56:29 EDT
DAL1366,1252.4838016401113,2275,-71.0950427475662,42.41381114291392,2018-05-11 14:57:28 EDT
SWA5390,773.5282353627567,2900,-71.09873805800069,42.40934135231116,2018-05-11 14:59:36 EDT
JBU1445,430.3308071609886,2925,-71.098789,42.410299,2018-05-11 15:01:12 EDT
UAL511,877.0315954577104,3800,-71.0977770439169,42.41380119011607,2018-05-11 15:02:55 EDT
AAL1211,467.6950599665898,2575,-71.09857945336624,42.41017091396012,2018-05-11 15:04:35 EDT
AAL147,450.77306726487654,2550,-71.09866230015379,42.41022546133622,2018-05-11 15:07:00 EDT
JBU165,2157.9469879931526,2625,-71.097639,42.405551,2018-05-11 15:08:09 EDT
AAL1271,1704.4988112637627,2375,-71.098272,42.406769,2018-05-11 15:13:43 EDT
AAL2142,444.80012191316416,4250,-71.09868365026384,42.41024460001012,2018-05-11 15:16:45 EDT
2131,717.1478016535508,3950,-71.09863211965808,42.409488575086264,2018-05-11 15:18:54 EDT
DAL2832,516.3761989174156,2625,-71.09871460992909,42.410049728326044,2018-05-11 15:19:41 EDT
UAL1598,1602.4437113153094,3275,-71.094027,42.414413,2018-05-11 15:23:21 EDT
DAL1863,1341.912331028357,2575,-71.09505309780707,42.41416087356475,2018-05-11 15:26:41 EDT
EJA143,599.9574756567682,5625,-71.0986954330018,42.40981633226656,2018-05-11 15:27:48 EDT
JBU1209,1331.5295279713307,3025,-71.09797446917477,42.40781306843555,2018-05-11 15:40:23 EDT
ENY3970,994.8759458093183,4075,-71.09619020815563,42.41362365896042,2018-05-11 15:41:40 EDT
JBU2917,66.05794640306195,4750,-71.09837006929222,42.41162405848439,2018-05-11 15:43:11 EDT
DAL2364,74.31339177828659,2425,-71.09843806214862,42.41124298248173,2018-05-11 15:51:52 EDT
AA1540,1504.4374607239724,2625,-71.100258,42.407552,2018-05-11 15:53:43 EDT
UAL448,1265.3168425563463,2575,-71.09507541943623,42.41388632381078,2018-05-11 15:57:20 EDT
CMP733,1719.5256951019212,2675,-71.097639,42.406761,2018-05-11 16:00:03 EDT
EJA563,958.0431112517903,4300,-71.09583881233928,42.413259253876696,2018-05-11 16:07:30 EDT
RPA6069,1012.6177830633145,3875,-71.09816120274786,42.40867823542207,2018-05-11 16:13:20 EDT
JBU633,1933.8099805358318,3025,-71.09404053037133,42.415646576778975,2018-05-11 16:14:41 EDT
GAJ827,298.7819855735876,3950,-71.09882620388478,42.41220168535853,2018-05-11 16:59:22 EDT
KAP305,1134.6350483166827,2075,-71.099458,42.414459,2018-05-13 12:53:40 EDT
N429HC,510.3704137682873,775,-71.10008056345534,42.4107951013798,2018-05-13 18:02:49 EDT
KAP,732.9999288652232,3700,-71.09569508204085,42.4112872263242,2018-05-15 08:57:06 EDT
KAP444,417.7618536610001,3250,-71.0999511183655,42.4115179588735,2018-05-15 09:34:45 EDT
KAP1010,1734.128135088552,1925,-71.09511139725531,42.41552326618376,2018-05-16 14:08:57 EDT
EJA525,846.1706524040187,9525,-71.09993050252282,42.41346969699685,2018-05-18 13:24:14 EDT
N435DH,174.7973420697427,975,-71.09786918069562,42.411714376095695,2018-05-18 23:16:25 EDT
KAP0053,1109.2162668091128,4800,-71.10247531332543,42.41188418681777,2018-05-20 10:42:36 EDT
JAL7,1168.252409048291,2900,-71.09527390255595,42.41365591107669,2018-05-20 13:52:34 EDT
AAL1540,2318.859423819019,3575,-71.09815,42.405085,2018-05-20 15:37:29 EDT
EDV3478,1197.804865343731,4125,-71.09799365382037,42.4081794242029,2018-05-20 15:39:17 EDT
ENY3970,1245.6143036982012,5250,-71.09604987984878,42.41437905409175,2018-05-20 15:41:17 EDT
AAL147,1368.0502972274273,3025,-71.095151,42.414322,2018-05-20 15:45:35 EDT
CMP733,1604.7776038492732,2950,-71.098196424432885,42.40705371420951,2018-05-20 15:48:33 EDT
SWA2249,1287.5606702477626,2950,-71.09482086906587,42.413774477888765,2018-05-20 15:51:16 EDT
UAL448,731.8814075952822,2850,-71.098896,42.40947,2018-05-20 15:53:25 EDT
DAL1863,1157.237649320399,2950,-71.09544186311675,42.41373716937249,2018-05-20 15:58:52 EDT
AAL2752,438.47901725706186,2900,-71.09868595954383,42.4102624706897,2018-05-20 16:00:27 EDT
SWA3060,1587.6121807877075,3750,-71.098335,42.407089,2018-05-20 16:02:50 EDT
NKS423,1248.6296541684046,3050,-71.097773,42.408051,2018-05-20 16:04:06 EDT
JBU797,224.75122655634894,3e3,-71.09849364519766,42.41083310722173,2018-05-20 16:05:31 EDT
JBU1089,51.91515374657645,4450,-71.09835732172054,42.41158275087275,2018-05-20 16:10:26 EDT
JBU2579,331.43996192797704,4775,-71.0984950748942,42.410539932312936,2018-05-20 16:13:44 EDT
JBU633,1073.9390102303705,2900,-71.0958162834952,42.41367967891048,2018-05-20 16:14:49 EDT
EJA791,353.20859380785413,5450,-71.09812665237385,42.41239002248709,2018-05-20 16:19:41 EDT
JBU521,1614.1209829876834,3100,-71.09815816203277,42.407029190956855,2018-05-20 16:23:03 EDT
N78KN,367.5631995922795,4100,-71.09773284868461,42.412320558261875,2018-05-20 16:24:24 EDT
N147SF,735.8542638711531,5125,-71.096587,42.412949,2018-05-20 16:29:32 EDT
DAL2626,580.7457568491037,2625,-71.09849510201187,42.409856272575894,2018-05-20 16:30:51 EDT
ASA33,701.6438841920545,2850,-71.09670273232359,42.41289802933152,2018-05-20 16:33:12 EDT
AAL1543,1712.583626751846,2600,-71.097895,42.406761,2018-05-20 16:42:12 EDT
CHH7962,1094.8801274293824,3550,-71.095404,42.413465,2018-05-20 16:45:16 EDT
DAL2391,1226.4613509869478,2700,-71.09509927535453,42.41375161440676,2018-05-20 16:47:37 EDT
AAL1776,1553.9726742497703,3625,-71.098397,42.407181,2018-05-20 16:58:39 EDT
DAL256,1062.787577735996,2500,-71.09572446912114,42.41357840893865,2018-05-20 16:59:54 EDT
JBU1237,1047.7228524080217,3100,-71.09582756734602,42.41359175582055,2018-05-20 17:04:19 EDT
JBU877,1185.5830747366642,2575,-71.09555891951935,42.413919388797986,2018-05-20 17:07:51 EDT
JBU19,194.35877443472006,2975,-71.09834222424593,42.41197514526201,2018-05-20 17:11:03 EDT
N552X,449.8103701465983,4400,-71.0985577744338,42.410218565247575,2018-05-20 17:15:27 EDT
DAL1523,1057.0178338881626,3350,-71.09566498306158,42.4135147750131,2018-05-20 17:21:19 EDT
RPA6047,562.1100962161897,3675,-71.09859478592388,42.409912298078346,2018-05-20 17:22:54 EDT
EJA548,809.3174395465411,6050,-71.098772,42.409241,2018-05-20 17:24:49 EDT
AAL826,1367.6300249100934,2925,-71.09820859287933,42.40770314922609,2018-05-20 17:26:02 EDT
CHH482,973.788276418448,3425,-71.09576742698415,42.41326628256613,2018-05-20 17:27:45 EDT
SWA2177,1854.5386228102716,3350,-71.098522,42.406357,2018-05-20 17:30:41 EDT
RPA6126,840.2080660362974,2775,-71.09620586067031,42.41307482847025,2018-05-20 17:33:24 EDT
UAL2045,785.7494495550739,2750,-71.09888022357929,42.40932237021564,2018-05-20 17:35:44 EDT
N455QS,655.2629006122019,5250,-71.098406,42.409647,2018-05-20 17:37:38 EDT
DAL105,650.9831747144275,2575,-71.09863301802523,42.40967053314104,2018-05-20 17:40:56 EDT
JBU1331,87.16334300056563,3900,-71.09840793105221,42.41120634384428,2018-05-20 17:42:10 EDT
AAL1370,1032.290057085161,2800,-71.09587996642551,42.4135695306337,2018-05-20 17:43:04 EDT
JBU1907,245.0023164597081,3e3,-71.09851730123164,42.41077931110473,2018-05-20 17:47:48 EDT
DLH423,731.1422820543385,2625,-71.09655674491611,42.412909791166456,2018-05-20 17:49:25 EDT
SWA6363,1129.5926237194176,3300,-71.095531,42.413697,2018-05-20 17:53:59 EDT
AAL29,1704.4132251148085,3075,-71.098522,42.406769,2018-05-20 17:54:42 EDT
AAL1530,1247.8373673924252,2725,-71.09503537890278,42.41378690042033,2018-05-20 17:55:43 EDT
EIN1AW,1037.5952522664531,2500,-71.09603669149158,42.41368419866719,2018-05-20 17:57:46 EDT
DAL2533,70.7668765826836,3225,-71.09847746104427,42.41125876673585,2018-05-20 18:01:26 EDT
JBU687,1189.558128474953,2775,-71.095787,42.41407,2018-05-20 18:03:44 EDT
AAL1231,1894.5237667467059,2450,-71.09829815522195,42.40625827068816,2018-05-20 18:04:56 EDT
SAS928,1623.5941263010673,3e3,-71.098661,42.406994,2018-05-20 18:06:47 EDT
IBE6166,1238.4417806978697,2575,-71.09833588247086,42.40805444994257,2018-05-20 18:09:27 EDT
JBU471,676.8914414907568,2600,-71.09662038322438,42.41274843822958,2018-05-20 18:12:58 EDT
ASA1367,842.8639263058374,3150,-71.09661249046897,42.41333566585107,2018-05-20 18:15:23 EDT
JBU321,1228.5237628853283,2875,-71.09822001028631,42.4080839963134,2018-05-20 18:16:21 EDT
DAL2882,275.6486412785604,2825,-71.09861052501705,42.41070566625168,2018-05-20 18:17:49 EDT
ACA533,868.4390627278553,3675,-71.09672284887768,42.4134727362462,2018-05-20 18:22:21 EDT
NKS616,1102.6078323176293,3125,-71.095588,42.413635,2018-05-20 18:30:50 EDT
JBU429,1331.7981498729885,2800,-71.09525315548655,42.414252575494565,2018-05-20 18:33:12 EDT
JBU1189,870.0158482873197,3300,-71.09864033057893,42.409069185090225,2018-05-20 18:34:39 EDT
AAL2779,481.7833740011959,2750,-71.09867043843423,42.41014048480717,2018-05-20 18:37:41 EDT
JBU1301,99.14612219541324,2925,-71.09845721678768,42.411176282649635,2018-05-20 18:40:33 EDT
UAL622,18.876719106071207,3875,-71.09840443734178,42.41149669834776,2018-05-20 18:42:11 EDT
JBU1951,1863.724301627576,3200,-71.09840377158409,42.406342001925346,2018-05-20 18:43:24 EDT
AAL1430,1430.6897981315576,2450,-71.09476934055353,42.41429816860015,2018-05-20 18:44:30 EDT
TWY900,2020.7747610994481,5050,-71.09766742194529,42.40593885290042,2018-05-20 18:50:05 EDT
DAL8884,1393.840445735798,3400,-71.098173625088,42.40763239937277,2018-05-20 18:51:53 EDT
NKS615,1499.6192933525833,2925,-71.09827260887147,42.407340108633605,2018-05-20 18:53:55 EDT
TAP218,1305.028605171134,2925,-71.09821,42.407867,2018-05-20 19:04:46 EDT
AAL1448,281.55663925162776,4150,-71.098709,42.410706,2018-05-20 19:12:23 EDT
JBU603,290.1318380989432,2800,-71.09850560275227,42.410654080000896,2018-05-20 19:13:49 EDT
UAL2400,350.0659739175479,3175,-71.09852970217233,42.41049092804983,2018-05-20 19:15:00 EDT
ASA15,1456.3462649843436,2875,-71.09462312915234,42.41429187721079,2018-05-20 19:17:29 EDT
DAL1257,669.2605290754238,2700,-71.09862563009382,42.409619775501064,2018-05-20 19:18:55 EDT
UAL2506,981.7513619036614,3725,-71.09591760564632,42.413407998874284,2018-05-20 19:20:07 EDT
AAL2149,107.0582469019278,3675,-71.09844219796905,42.41173684349142,2018-05-20 19:21:57 EDT
DAL2265,1245.1637289402884,2950,-71.09516289004115,42.413872773731676,2018-05-20 19:22:54 EDT
JBU317,141.3620909141615,4100,-71.09851010884697,42.411065794823806,2018-05-20 19:24:34 EDT
JBU647,1633.5838486896505,2575,-71.09504909219977,42.41516896069574,2018-05-20 19:25:58 EDT
WOW8TL,960.2561671450303,2400,-71.0959,42.413315,2018-05-20 19:26:50 EDT
DAL118,945.077844829043,3600,-71.09609409558549,42.41339056199445,2018-05-20 19:29:12 EDT
DAL2790,1357.011176732666,2725,-71.0946773403247,42.41394127829993,2018-05-20 19:31:05 EDT
AAL1172,1768.8106364716052,2775,-71.09810674198359,42.40660689018097,2018-05-20 19:32:05 EDT
JBU405,82.35835930335558,2650,-71.09836849971762,42.41166888752582,2018-05-20 19:34:21 EDT
AFR333,1209.0545577991484,2625,-71.09505821946993,42.41364812077458,2018-05-20 19:35:41 EDT
EIN11EA,1453.4331807821327,3675,-71.10206021291434,42.408520286430836,2018-05-20 19:38:46 EDT
DAL58,1044.3632329285902,3450,-71.09570243459953,42.41349334349022,2018-05-20 19:40:16 EDT
2679,25.69608042918383,4400,-71.09837393732924,42.41151151540394,2018-05-20 19:44:15 EDT
JBU1451,641.5558744606832,3350,-71.09856992116066,42.409692603126906,2018-05-20 19:46:30 EDT
2151,412.0842205706306,3800,-71.09875838370911,42.410347268118215,2018-05-20 19:47:22 EDT
JBU815,960.6781071966617,3125,-71.09590497202439,42.41331906810332,2018-05-20 19:48:06 EDT
UAL1196,1091.091595957228,3350,-71.09555827693808,42.413568149728164,2018-05-20 19:48:51 EDT
DAL258,714.1004058145572,3175,-71.09672369973397,42.41295568674282,2018-05-20 19:49:44 EDT
JBU2683,700.9780501119926,3400,-71.09847333666269,42.40952633760823,2018-05-20 19:52:23 EDT
SKV7687,936.7807704694867,3625,-71.096025,42.413315,2018-05-20 19:53:32 EDT
N306GV,1406.8014507135113,6025,-71.097959,42.407599,2018-05-20 19:55:58 EDT
JBU2235,715.2675411168041,3325,-71.096873,42.413046,2018-05-20 19:57:12 EDT
AAL1319,1177.9077158923394,2875,-71.0954078608966,42.41379136874173,2018-05-20 19:58:35 EDT
JBU197,900.5718566187921,3275,-71.09623001226551,42.413316288508845,2018-05-20 20:03:24 EDT
DAL425,794.378382497389,3225,-71.09633709792294,42.412994181326354,2018-05-20 20:06:51 EDT
JBU1431,518.4208532311893,4150,-71.09875996028474,42.41004993177802,2018-05-20 20:11:42 EDT
BAW45B,1285.697438416464,1775,-71.09516766565271,42.41402958061684,2018-05-20 20:13:16 EDT
SWA6078,1201.77306845623,3625,-71.09520197488393,42.41373309831431,2018-05-20 20:18:42 EDT
AAL2724,321.9786720618694,2750,-71.09867773136607,42.41058670452319,2018-05-20 20:21:07 EDT
ENY4091,6.3226918424577,3625,-71.09839414892167,42.411460347147035,2018-05-20 20:26:34 EDT
DAL2274,1043.5804294055295,2925,-71.09568777726936,42.41347973528242,2018-05-20 20:27:44 EDT
EDV3471,540.4219173188517,3650,-71.098647,42.409973,2018-05-20 20:32:34 EDT
N355VJ,887.920621780116,6550,-71.09596929806024,42.413081099523495,2018-05-20 20:33:50 EDT
RPA5892,12.761752563820641,2950,-71.09838935304776,42.41147827072804,2018-05-20 20:36:10 EDT
DAL1700,786.3233550942622,2525,-71.098917,42.409321,2018-05-20 20:42:46 EDT
UAL646,808.2860461844361,3125,-71.096462,42.413132,2018-05-20 20:45:35 EDT
SKV7689,855.9406414899044,4550,-71.09663336577844,42.41338965117397,2018-05-20 20:51:06 EDT
SWA3038,2002.3664949002853,3200,-71.09782671524701,42.4059790405692,2018-05-20 20:54:25 EDT
RPA5897,385.45629057846253,3625,-71.09774354463772,42.41238062156798,2018-05-20 20:58:33 EDT
ICE632,1117.2213462425077,3200,-71.0958381225931,42.41384628584685,2018-05-20 21:03:25 EDT
JBU177,300.913210940004,3050,-71.09860000113099,42.4106337557105,2018-05-20 21:04:54 EDT
DLH425,984.135793231234,2450,-71.09584135683826,42.41336295966562,2018-05-20 21:10:02 EDT
JBU391,406.5097958843984,3325,-71.09848754445719,42.41033361921579,2018-05-20 21:13:07 EDT
SCX254,1291.9076841974675,3225,-71.09489002502015,42.41384877983562,2018-05-20 21:14:08 EDT
EJA512,1553.2900210714947,5125,-71.09863409564839,42.4071953561643,2018-05-20 21:15:04 EDT
JBU833,1154.4524497615384,2675,-71.095531,42.41379,2018-05-20 21:16:38 EDT
SWA6112,1325.497263133505,2925,-71.09480307624992,42.41391481324152,2018-05-20 21:17:59 EDT
JBU95,858.5811291766216,2700,-71.096489,42.413325,2018-05-20 21:19:32 EDT
JBU2009,120.25824715973145,3550,-71.09843087318686,42.41111627009763,2018-05-20 21:30:30 EDT
JBU2717,150.8307727819698,3675,-71.09864593354422,42.41107227913024,2018-05-20 21:32:33 EDT
JBU987,193.56523030137015,2900,-71.09852761733177,42.41092279495055,2018-05-20 21:34:49 EDT
EIN13J,1018.3914119972453,2775,-71.09608202239282,42.41364361620614,2018-05-20 21:36:52 EDT
JBU993,1223.5056114237188,2750,-71.09539117044012,42.41394933406445,2018-05-20 21:40:00 EDT
ASA1359,1205.4493909920925,2625,-71.09545975939237,42.413928080636495,2018-05-20 21:41:59 EDT
EDV3452,315.53333596317526,3675,-71.09851037919188,42.4105845589917,2018-05-20 21:42:48 EDT
NRS7148,1206.9382568344697,2350,-71.09517751436186,42.4137347438375,2018-05-20 21:43:40 EDT
ICE630,1151.45511922764,3600,-71.094839,42.413177,2018-05-20 21:48:25 EDT
JBU333,372.65894680736017,3600,-71.097773,42.412354,2018-05-20 21:56:53 EDT
SWR53T,1366.7225051636453,1750,-71.09814588116753,42.40770771888959,2018-05-20 21:58:59 EDT
SWA4259,1572.8796411950732,3850,-71.098709,42.407135,2018-05-20 22:01:11 EDT
PRI44,989.0662085489171,3225,-71.09595462263034,42.413460211846854,2018-05-20 22:03:07 EDT
NKS641,195.77285141572924,2825,-71.0983108865219,42.411976516104225,2018-05-20 22:04:19 EDT
VIR12E,1341.2921210412114,2325,-71.095089,42.414185,2018-05-20 22:09:26 EDT
NKS1027,2216.1578953452577,3350,-71.098406,42.405364,2018-05-20 22:12:35 EDT
AZA66Y,1298.9013090243254,2550,-71.09502,42.413977,2018-05-20 22:21:22 EDT
RZO280,1469.5706735699491,2925,-71.0979435873399,42.407435667130144,2018-05-20 22:23:56 EDT
JBU1679,628.9210779736145,4875,-71.09879735361885,42.409747512504595,2018-05-20 22:25:12 EDT
BAW51B,1103.7911247201328,2475,-71.09555630862255,42.413615397967085,2018-05-20 22:25:57 EDT
JBU221,1575.326419145242,3175,-71.09796,42.407135,2018-05-20 22:30:26 EDT
JBU2469,1787.5782691979118,3350,-71.098397,42.40654,2018-05-20 22:40:54 EDT
NAX7150,1177.9726433698527,3825,-71.095276,42.413697,2018-05-20 22:43:32 EDT
JBU845,849.4386732096496,4900,-71.09680465295611,42.41344834184339,2018-05-20 22:46:23 EDT
JBU497,776.7995335919572,3550,-71.096937,42.413278,2018-05-20 22:53:52 EDT
JBU997,450.61125478715996,3825,-71.09804196830277,42.41264933816945,2018-05-20 23:04:04 EDT
QTR744,794.5867075376434,3550,-71.096399,42.41304,2018-05-20 23:08:09 EDT
BAW80G,1044.7538234734952,2625,-71.095723,42.413511,2018-05-20 23:19:42 EDT
UAE238,643.3140743477193,3725,-71.09692889346717,42.41282882316453,2018-05-20 23:30:51 EDT
JBU923,1571.6180096224662,2700,-71.09821,42.407135,2018-05-20 23:34:55 EDT
AMX699,1825.9223958849761,3725,-71.098342,42.406435,2018-05-20 23:43:51 EDT
THY82M,622.3158232465837,3325,-71.098278,42.40974,2018-05-20 23:52:06 EDT
JBU1427,255.59139523483952,3775,-71.09860455251058,42.41076085787781,2018-05-20 23:54:30 EDT
JBU61,1327.4461315127749,3250,-71.097898,42.407822,2018-05-21 00:13:20 EDT
MEDVC4A,905.1793530569355,5e3,-71.09862889668359,42.40897207851183,2018-05-21 00:14:25 EDT
CPA811,1212.1978455773567,2950,-71.09509151412637,42.41368814155506,2018-05-21 02:33:25 EDT
AAL1580,1928.5300766988391,2350,-71.097773,42.406174,2018-05-21 06:13:16 EDT
AAL2264,1296.2925774857922,2375,-71.09495380992121,42.41391592078665,2018-05-21 06:16:17 EDT
AAL1637,924.1412586448562,2500,-71.09600856675799,42.413253959827045,2018-05-21 06:22:06 EDT
AAL2320,739.4269075195587,2100,-71.098647,42.409424,2018-05-21 06:41:48 EDT
JBU1077,83.15593760593148,2225,-71.09837285285064,42.41167144625607,2018-05-21 07:01:44 EDT
DAL2767,1220.0448572897496,2350,-71.09512871989848,42.41374900122401,2018-05-21 07:03:37 EDT
AAL2538,1688.1777213310017,2450,-71.09821,42.406815,2018-05-21 07:06:30 EDT
AAL1404,1577.459697966257,2400,-71.09409675799047,42.41436701928685,2018-05-21 07:16:49 EDT
DAL2488,1102.9088655660803,2575,-71.095463,42.413544,2018-05-21 07:26:10 EDT
JBU287,946.0618262080066,2325,-71.09609946511505,42.413397607289156,2018-05-21 07:28:36 EDT
JBU215,327.49441888647306,2575,-71.09814604759683,42.41232108227825,2018-05-21 07:34:56 EDT
JBU1039,318.64846235390485,2775,-71.09811382773196,42.41229058198053,2018-05-21 07:41:51 EDT
AAL166,923.970862025046,2400,-71.095978,42.413232,2018-05-21 07:49:24 EDT
ASA1351,996.797802234615,2325,-71.09581662066626,42.413393626800485,2018-05-21 07:51:36 EDT
AAL1814,1334.2381067079607,2150,-71.09812292432052,42.40779770982543,2018-05-21 07:57:25 EDT
ASA25,1239.7747751696581,2100,-71.095915,42.414303,2018-05-21 08:00:18 EDT
JBU773,758.1097934525385,2525,-71.09838141742836,42.40936931907761,2018-05-21 08:21:34 EDT
JBU721,1234.298484914915,2425,-71.09812647648373,42.40807167299319,2018-05-21 08:29:43 EDT
JBU133,970.0412372163674,2700,-71.09620219527251,42.413544905955796,2018-05-21 08:30:31 EDT
AAL2303,627.7306733592416,2175,-71.09861836958488,42.409733467039445,2018-05-21 08:32:55 EDT
JBU597,1322.983409035851,2350,-71.0951234109111,42.414137961221535,2018-05-21 08:35:46 EDT
JBU493,1482.297001247173,2300,-71.094652,42.414413,2018-05-21 09:03:49 EDT
AAL333,1319.57834798734,1875,-71.09488581561598,42.41395573176741,2018-05-21 09:15:16 EDT
ASA1363,1573.9365457940764,1975,-71.094777,42.414825,2018-05-21 09:21:46 EDT
ASA737,976.328942277812,2400,-71.09593798242152,42.413401729453405,2018-05-21 09:32:42 EDT
JBU2819,1100.219806136087,2200,-71.09566059305924,42.41367425179252,2018-05-21 09:35:47 EDT
CMP312,1670.2518606260048,2300,-71.09792406227035,42.40688554870199,2018-05-21 09:43:29 EDT
JBU771,984.9985245015004,2525,-71.0981265301586,42.40875585842427,2018-05-21 10:33:11 EDT
JBU311,885.4254705537917,2250,-71.09633338985346,42.41332601654241,2018-05-21 10:42:19 EDT
JBU895,1115.4914877850588,2325,-71.09815,42.40839,2018-05-21 10:48:16 EDT
ASA1353,1262.0729613542474,2325,-71.0952889410343,42.41402352967676,2018-05-21 10:56:14 EDT
AAL2743,602.714059167346,2575,-71.09859584845952,42.40980075567999,2018-05-21 11:01:31 EDT
AAL1509,1334.2975035243585,2750,-71.098533,42.407785,2018-05-21 11:29:54 EDT
UAL652,1341.5251553514436,2875,-71.09484601076457,42.414011721734475,2018-05-21 12:21:55 EDT
AAL1240,441.8384334027561,2550,-71.09867416853744,42.41025165254208,2018-05-21 12:29:52 EDT
N20JX,503.80047513602574,3050,-71.09999980777616,42.41072639261106,2018-05-21 14:44:34 EDT
XAUYQ,1507.3799468092782,9950,-71.10284997101171,42.408942192138625,2018-05-21 15:20:54 EDT
N656ST,2111.5107037405014,3400,-71.10475753891846,42.414825630082234,2018-05-21 20:18:56 EDT
AAL810,691.6428518384292,2125,-71.09866396292699,42.40956091388399,2018-05-22 05:13:37 EDT
AAL1580,2190.339822792198,2e3,-71.098772,42.405441,2018-05-22 06:12:44 EDT
JBU597,1104.360528514042,2100,-71.0955490604155,42.41361237246841,2018-05-22 06:45:08 EDT
DAL2767,1435.07421481325,2125,-71.09466811002328,42.41424284629653,2018-05-22 06:52:20 EDT
JBU287,831.6463806456984,1925,-71.09648793908624,42.41322879912392,2018-05-22 07:01:04 EDT
AAL2538,1723.9896874407414,2100,-71.09789996258432,42.40673935459605,2018-05-22 07:07:53 EDT
N429HC,1979.4981049517903,650,-71.10573524148614,42.41115220226913,2018-05-22 07:14:56 EDT
JBU133,846.2181807341282,2625,-71.0962732516311,42.41314541535994,2018-05-22 07:17:37 EDT
JBU721,32.84539890177419,2950,-71.09841947960662,42.41153429819058,2018-05-22 07:28:48 EDT
ASA1351,1050.2288454232632,1975,-71.09572086348868,42.41352872980359,2018-05-22 07:34:36 EDT
ASA25,1384.7016291501388,2125,-71.09469111821518,42.41406348824073,2018-05-22 07:37:12 EDT
JBU1039,1141.0852712806752,2125,-71.099208,42.408371,2018-05-22 07:55:42 EDT
JBU215,433.6443369883849,2100,-71.09860448493869,42.41026682297211,2018-05-22 07:59:55 EDT
UAL339,838.5391299854828,2375,-71.09615584458328,42.413030575638565,2018-05-22 08:01:25 EDT
AAL166,1328.4710969862663,1925,-71.094839,42.413956,2018-05-22 08:05:23 EDT
JBU2819,213.9263833505434,2100,-71.098406,42.410858,2018-05-22 08:14:01 EDT
JBU771,1228.9947248437256,2125,-71.09828672805078,42.408081065471585,2018-05-22 08:23:05 EDT
JBU895,1398.6695152919006,2175,-71.09812914839229,42.407620771844044,2018-05-22 08:29:00 EDT
AAL2303,844.2348878310288,2075,-71.09853885195658,42.40913554308717,2018-05-22 08:30:53 EDT
AAL333,939.4553090743225,1750,-71.09666631415662,42.41367410021185,2018-05-22 09:16:35 EDT
AAL2459,1093.6638077627001,1850,-71.095775,42.413727,2018-05-22 09:20:07 EDT
ASA737,1219.1145215733713,1800,-71.09528794590888,42.413862916661536,2018-05-22 09:41:09 EDT
CMP312,2215.5648134036073,2175,-71.097586,42.405396,2018-05-22 10:02:10 EDT
JBU619,1264.3672703813104,1825,-71.09541264786526,42.41411036645605,2018-05-22 10:04:51 EDT
AAL2743,694.2748433480892,2e3,-71.09870950845134,42.409557372279245,2018-05-22 10:23:38 EDT
AAL2251,848.3697241932007,2525,-71.09859933727599,42.40912654424809,2018-05-22 10:28:37 EDT
JBU1585,256.05088473968493,2400,-71.09859609934068,42.41075825971202,2018-05-22 10:45:35 EDT
AAL2665,1315.7772429653655,2025,-71.09494694506361,42.413986883757346,2018-05-22 10:51:10 EDT
ASA1353,1157.8910495062266,2150,-71.09552251219426,42.41379497413553,2018-05-22 11:06:21 EDT
JBU1833,1070.610158974124,2250,-71.095787,42.413651,2018-05-22 11:07:47 EDT
AAL1509,1844.6203390307624,2275,-71.098086,42.406389,2018-05-22 11:14:32 EDT
AAL1980,1297.4872739332632,2125,-71.09822297476424,42.407894938108846,2018-05-22 11:21:40 EDT
DAL800,698.3009478651124,2450,-71.09867997216726,42.40954381501843,2018-05-22 11:27:47 EDT
DAL341,1358.0672883421714,2225,-71.09462393428734,42.413901482750106,2018-05-22 11:52:05 EDT
JBU311,851.5882231408588,1975,-71.09607609401375,42.41301992109226,2018-05-22 11:56:39 EDT
KAP85,224.41527025489077,2400,-71.0985536062312,42.412049589117245,2018-05-22 16:16:57 EDT
ASA737,957.3315613241386,2650,-71.09627463895467,42.41354191697563,2018-05-23 09:34:40 EDT
CMP312,1690.2551905015998,2825,-71.098278,42.406808,2018-05-23 09:41:12 EDT
FDX647,536.4275909161246,4150,-71.09848777210182,42.40997749818668,2018-05-23 09:44:54 EDT
AAL197,1707.3803607076659,4600,-71.098278,42.406761,2018-05-23 09:50:01 EDT
AAL2743,1158.627077297957,2950,-71.09518788380292,42.41354798401653,2018-05-23 10:17:12 EDT
JBU895,1659.2930495500411,2550,-71.09801360716746,42.40691094676992,2018-05-23 10:24:42 EDT
AAL2251,872.8009110948673,2700,-71.098691192348,42.40906457341731,2018-05-23 10:50:14 EDT
JBU487,1068.3900771607416,2875,-71.095775,42.413635,2018-05-23 11:34:11 EDT
DAL341,1219.3678294750239,2450,-71.09509975292913,42.41372362136997,2018-05-23 11:43:45 EDT
JBU859,556.0279904015773,3900,-71.09852141029067,42.40992498460716,2018-05-23 11:55:30 EDT
ENY4096,1596.2469005783996,4225,-71.09394718587758,42.41432084834684,2018-05-23 11:59:38 EDT
SCX252,1102.6078323176293,3250,-71.095588,42.413635,2018-05-23 12:01:32 EDT
SWA1590,2140.364207702876,3700,-71.09831405006105,42.405584928605826,2018-05-23 12:09:07 EDT
EJA728,484.08427295146436,5250,-71.09868395524373,42.41013564561238,2018-05-23 12:10:34 EDT
LXJ454,1014.7844272091121,4825,-71.09567993505485,42.413361379377385,2018-05-23 12:11:56 EDT
AAL2139,537.8194950772584,4425,-71.09889586690907,42.41001770824272,2018-05-23 12:13:43 EDT
JBU1833,823.3435159087672,2750,-71.09636797750558,42.413124390483546,2018-05-23 12:14:57 EDT
UAL652,563.1772339561102,2775,-71.09863705859671,42.40991253243988,2018-05-23 12:18:03 EDT
DAL992,1707.7742750113803,2675,-71.09840403757958,42.406769003291124,2018-05-23 12:19:06 EDT
JBU203,1420.748191282435,3125,-71.101983,42.414303,2018-05-23 12:21:06 EDT
RPA6063,1303.6074768125782,3575,-71.09806302138081,42.40788457990266,2018-05-23 12:23:23 EDT
LXJ572,1411.7726951048453,4650,-71.098959,42.407593,2018-05-23 12:25:07 EDT
JBU873,1273.3731884974572,2575,-71.098085,42.407959,2018-05-23 12:27:10 EDT
AAL1398,655.2629006122019,2675,-71.098406,42.409647,2018-05-23 12:30:32 EDT
DAL1762,509.505054947623,2950,-71.098552100914,42.410054176085,2018-05-23 12:35:43 EDT
JBU689,167.09004373178718,4225,-71.09849638925465,42.41099246057807,2018-05-23 12:38:21 EDT
UAL1946,53.56399017038175,4100,-71.09842463746993,42.411298980497264,2018-05-23 12:43:25 EDT
JBU865,1415.1531795450485,3050,-71.0981781095539,42.40757384114046,2018-05-23 12:46:14 EDT
AAL1039,1833.9554534495278,3575,-71.097767,42.406435,2018-05-23 12:47:43 EDT
AAL2607,503.9186275759237,3125,-71.098522,42.410065,2018-05-23 12:51:53 EDT
KAP305,2168.623558933032,2400,-71.100194,42.405644,2018-05-23 13:00:54 EDT
AAL1172,1889.867426270304,2900,-71.09755385525689,42.406308720857595,2018-05-23 18:42:44 EDT
2151,589.5565849222594,4400,-71.09769689936891,42.41297224387812,2018-05-23 18:49:25 EDT
AAL1231,1760.5973633928,2550,-71.09799121808068,42.406634059725086,2018-05-23 18:54:59 EDT
RPA6075,1373.597286314229,3600,-71.0984039580451,42.407684001489244,2018-05-23 18:56:00 EDT
NKS615,1422.7945428383211,3025,-71.09710017322196,42.4152197208423,2018-05-23 18:57:03 EDT
DAL914,1037.0775860400047,3175,-71.09564083259168,42.413419449180175,2018-05-23 19:00:20 EDT
UAL439,1440.7403586427056,4075,-71.09455218916402,42.414178224984305,2018-05-23 19:02:16 EDT
AAL305,1302.244241710252,2850,-71.09492270604838,42.413915596879,2018-05-23 19:03:44 EDT
EJM486,1807.3036529278638,5575,-71.098022,42.406494,2018-05-23 19:05:34 EDT
N767QS,1604.375227441951,3650,-71.098335,42.407043,2018-05-23 19:07:38 EDT
JBU1951,1787.63645382706,3275,-71.098459,42.40654,2018-05-23 19:08:39 EDT
AAL1319,952.3583555865089,3325,-71.0960717304046,42.41340259013706,2018-05-23 19:09:11 EDT
DAL1257,191.46053471675978,3025,-71.09852931613175,42.41092886604179,2018-05-23 19:10:24 EDT
JBU647,1747.3707568636944,3375,-71.09485705354658,42.41544866453802,2018-05-23 19:11:54 EDT
UAL717,1080.3914283993665,3025,-71.09564960640483,42.4135926640305,2018-05-23 19:13:27 EDT
JBU405,1186.607575215824,2775,-71.09551654295508,42.413896193252334,2018-05-23 19:15:53 EDT
TAP218,1186.5293139545192,2525,-71.09834363048863,42.408196521320335,2018-05-23 19:17:14 EDT
ASA15,1288.9306127276725,2625,-71.09500559787138,42.4139261605713,2018-05-23 19:22:48 EDT
DAL258,1050.9960389955806,3475,-71.0986313808888,42.40857216288308,2018-05-23 19:24:14 EDT
2141,96.89364978555214,5225,-71.09842409154639,42.411180065811486,2018-05-23 19:27:19 EDT
ENY4091,237.26013779927078,3900,-71.09815,42.412068,2018-05-23 19:28:28 EDT
RPA6077,925.7020182289347,3925,-71.09856036646599,42.40891296523278,2018-05-23 19:29:42 EDT
WOW8TL,1003.2173334906548,2350,-71.09586510180088,42.413452219946485,2018-05-23 19:33:54 EDT
DAL118,1096.2281209209407,3350,-71.09847119579588,42.408443854114466,2018-05-23 19:37:20 EDT
AFR333,870.6936560471082,2575,-71.0960495129256,42.413075704250026,2018-05-23 19:39:06 EDT
DAL2790,1103.7911247201328,3175,-71.09555630862255,42.413615397967085,2018-05-23 19:41:22 EDT
ENY3971,986.3605732891039,4425,-71.096025,42.413498,2018-05-23 19:42:28 EDT
DAL58,936.7238752358162,3425,-71.098459,42.408875,2018-05-23 19:45:07 EDT
SWA384,1080.8886817348107,3475,-71.09570576645143,42.41363303647933,2018-05-23 19:47:41 EDT
JBU2235,1065.8202648168922,2825,-71.09573270052279,42.413595314527754,2018-05-23 19:52:10 EDT
JBU603,20.11824874731019,2750,-71.09841569077386,42.41139048297096,2018-05-23 19:55:02 EDT
JBU197,745.3698416486334,2700,-71.09660931934536,42.41299662514943,2018-05-23 19:59:37 EDT
UAL2136,536.7777606011701,3925,-71.09869854795984,42.409991335546046,2018-05-23 20:02:12 EDT
SKV7687,865.2216480184443,4075,-71.09614312375696,42.413125356093026,2018-05-23 20:03:56 EDT
DAL709,72.15300693109221,2825,-71.09835850711578,42.41163955473324,2018-05-23 20:11:36 EDT
PDT4781,930.326606820433,5925,-71.09727712622498,42.41385234500358,2018-05-23 20:17:26 EDT
DAL2753,341.88848364264754,3e3,-71.09826610422611,42.410514516501465,2018-05-23 20:19:31 EDT
AAL2116,2365.0113165778944,3825,-71.097586,42.404984,2018-05-23 20:20:45 EDT
RPA5897,90.68724687787767,3950,-71.09849058105014,42.41120483077766,2018-05-23 20:22:15 EDT
UAL2400,996.4589463727469,3100,-71.09582001683141,42.41339478464445,2018-05-23 20:26:31 EDT
DLH425,1564.0565526379926,2750,-71.09786147432304,42.40718135458679,2018-05-23 20:35:57 EDT
NKS641,1046.3353998773866,2975,-71.095851,42.413604,2018-05-23 20:41:02 EDT
JBU1615,617.9304904415714,4275,-71.09705536042216,42.41281237711583,2018-05-23 20:44:58 EDT
BAW45B,1485.0853997309378,2250,-71.09956752689996,42.407470362519184,2018-05-23 20:48:30 EDT
ASA1359,1966.0740562296044,2475,-71.09351317592353,42.41543697298347,2018-05-23 20:50:50 EDT
DAL1254,1010.3322717842137,2875,-71.098834,42.408691,2018-05-23 20:52:05 EDT
EJA683,2370.5085285315836,4950,-71.09801591785597,42.40496075452152,2018-05-23 20:53:21 EDT
JBU833,888.0989543531059,2600,-71.09608426725497,42.41317048547766,2018-05-23 20:55:03 EDT
SWA5781,1691.3098557122391,3225,-71.09815,42.406808,2018-05-23 20:56:35 EDT
FDX1206,525.5251777442635,4050,-71.09855409647147,42.41001029486335,2018-05-23 20:59:08 EDT
JBU993,935.8624069296174,2700,-71.095978,42.413278,2018-05-23 21:04:07 EDT
JBU177,852.8678897230853,2600,-71.09860264112176,42.40911435553698,2018-05-23 21:32:21 EDT
4294,2080.2403992955883,4200,-71.09388007083213,42.4160582888333,2018-05-23 21:33:30 EDT
KAP77,457.2731755436385,2900,-71.09999839897671,42.411016510335415,2018-05-25 08:16:15 EDT
KAP47,1365.933878368076,2825,-71.102941,42.409787,2018-05-25 08:49:10 EDT
ASA1363,1137.1365665637277,2575,-71.09538592422392,42.41361890701999,2018-05-25 09:20:54 EDT
JBU895,926.478211497233,3125,-71.09813541469016,42.408916062343025,2018-05-25 09:33:03 EDT
AAL333,975.7407965928562,3250,-71.09578070179036,42.41328447927324,2018-05-25 09:36:09 EDT
ASA737,1025.2422360607902,2925,-71.09558880552926,42.413331052404104,2018-05-25 09:39:59 EDT
CMP312,1292.7995850730586,3175,-71.09796,42.407913,2018-05-25 09:49:19 EDT
JBU619,1239.3122276886716,2950,-71.09544487068845,42.414040849519836,2018-05-25 09:58:58 EDT
AAL2743,689.4455497974634,3150,-71.0986663389608,42.40956713962444,2018-05-25 10:17:59 EDT
AAL2251,469.3936576710975,2825,-71.09863879786008,42.410171413456816,2018-05-25 10:33:12 EDT
AAL2253,1622.2163681432828,2975,-71.09847,42.406994,2018-05-25 10:44:50 EDT
ASA1353,1181.9176318731288,2800,-71.09544220797024,42.41382994979389,2018-05-25 11:15:01 EDT
JBU487,990.4339453676088,2875,-71.09600322273593,42.413496809663386,2018-05-25 11:46:52 EDT
DAL341,1339.1186845102193,2775,-71.09471572541595,42.413899569460575,2018-05-25 12:00:12 EDT
SCX252,1040.1348288567483,3050,-71.09560334920283,42.41340263459296,2018-05-25 12:07:16 EDT
NKS609,674.0038239618291,3250,-71.098214,42.409601,2018-05-25 12:10:11 EDT
2123,240.45323810162364,4900,-71.0985960353036,42.41080187938669,2018-05-25 12:13:06 EDT
SWA1590,1781.5788865824018,3425,-71.097831,42.406575,2018-05-25 12:14:03 EDT
EJA277,1140.3880661426479,5600,-71.09546780163639,42.41369160237083,2018-05-25 12:17:45 EDT
AAL1240,261.0939611228243,3300,-71.09796870778787,42.412083210492426,2018-05-25 12:18:59 EDT
UAL652,777.1516104897997,3075,-71.098661,42.409321,2018-05-25 12:20:47 EDT
JBU689,425.3954659733555,3350,-71.09870387135028,42.410301333026695,2018-05-25 12:25:41 EDT
RPA6063,1234.8155603713724,3900,-71.098086,42.408065,2018-05-25 12:26:36 EDT
AAL1398,1244.9293360766428,2550,-71.09494036122138,42.413698035571585,2018-05-25 12:42:38 EDT
JBU1833,1048.3286012257008,3075,-71.09597713110198,42.413686906191,2018-05-25 12:45:05 EDT
DAL1762,596.6559336046739,2950,-71.09874355851474,42.40983055239665,2018-05-25 12:51:35 EDT
EJA410,1332.192418452758,5500,-71.0948672838372,42.413991225870255,2018-05-25 12:53:41 EDT
DAL867,1172.1519893327106,2725,-71.09521505577645,42.41362531753853,2018-05-25 12:57:36 EDT
AAL2607,755.6857484745241,2400,-71.09855294972162,42.409378768654726,2018-05-25 13:02:55 EDT
NKS773,841.386476689536,3050,-71.09623254246515,42.41309871650931,2018-05-25 13:03:59 EDT
NKS857,109.0343972890847,2675,-71.09842876504456,42.41114697230664,2018-05-25 13:06:08 EDT
2162,414.2833730336039,4150,-71.09828242252115,42.41031427524344,2018-05-25 13:15:15 EDT
1775,149.64218061670806,4e3,-71.09821358884834,42.41182958669452,2018-05-25 13:18:26 EDT
RPA6065,260.22259139498874,3625,-71.09851584614879,42.41073719729412,2018-05-25 13:21:52 EDT
AAL1006,1747.756994249499,2725,-71.09771,42.406677,2018-05-25 13:25:21 EDT
UAL1564,651.1583644599456,3800,-71.0971320646903,42.41296010533914,2018-05-25 13:27:16 EDT
SWA5779,68.85387736641634,3375,-71.09831913772884,42.41162254857496,2018-05-25 13:31:05 EDT
FSR103,1765.1779600423267,4575,-71.09401191558341,42.415028311701725,2018-05-25 13:33:32 EDT
SWA5437,907.1720317869876,2825,-71.0985962568442,42.40896512113007,2018-05-25 13:37:58 EDT
UAL259,259.1506160475172,3200,-71.09866584124183,42.41076206192024,2018-05-25 13:44:05 EDT
JBU1281,1218.1808050519578,3075,-71.09807178225236,42.408118627007916,2018-05-25 13:47:03 EDT
AAL1199,1268.7568824874136,2900,-71.09510161275533,42.4139188872161,2018-05-25 13:52:00 EDT
EJA311,1096.2819151309836,5750,-71.09540280102044,42.41346914874974,2018-05-25 13:52:54 EDT
UAL1946,661.1982778790388,4125,-71.09887971905567,42.40966884637555,2018-05-25 13:54:45 EDT
EJM809,719.0597404786498,3525,-71.09665407795006,42.4129299914589,2018-05-25 13:55:54 EDT
EDV3430,1278.76407633935,3375,-71.09797953647615,42.40795778105315,2018-05-25 13:57:28 EDT
JBU1735,899.7241854483431,3375,-71.09619530091545,42.4132908915306,2018-05-25 14:05:07 EDT
JAL7,1145.4183432928849,3600,-71.09549720043194,42.41373128498463,2018-05-25 14:07:57 EDT
JBU1927,1280.9599372407258,3400,-71.09821811444074,42.40794036329429,2018-05-25 14:10:02 EDT
JBU417,1208.1805744567448,3750,-71.098022,42.408142,2018-05-25 14:21:08 EDT
NKS467,231.54481762042508,2950,-71.0983198890826,42.41207586420284,2018-05-25 14:24:11 EDT
DAL981,372.3759379579376,2825,-71.09851547588075,42.41042867849232,2018-05-25 14:30:41 EDT
JBU697,392.98534434050237,2925,-71.09852435051731,42.41037259481385,2018-05-25 14:33:01 EDT
JBU1991,1654.3000937656434,2875,-71.098335,42.406906,2018-05-25 14:41:42 EDT
JBU1115,296.6789457648008,2800,-71.09877004610743,42.41067868504025,2018-05-25 14:45:54 EDT
RPA5871,147.14371659257012,3950,-71.09827923558494,42.41183706178891,2018-05-25 14:47:48 EDT
EDV5173,171.85346406147934,3275,-71.09852230590735,42.410982492669056,2018-05-25 14:50:21 EDT
NKS805,216.70112630513944,3475,-71.098533,42.410858,2018-05-25 14:52:58 EDT
N681ZL,91.00832311033633,4525,-71.09850927434901,42.41120800499242,2018-05-25 14:58:32 EDT
SWA5390,1098.773246943651,3450,-71.09535610134239,42.41344102980786,2018-05-25 15:01:17 EDT
JBU951,1167.2194748572035,3125,-71.09816296135494,42.40825407753419,2018-05-25 15:02:20 EDT
AAL1422,1588.6046661214048,3650,-71.098533,42.407087,2018-05-25 15:04:04 EDT
DAL155,965.3883931951816,3475,-71.09632282650038,42.41359530968227,2018-05-25 15:05:49 EDT
DAL1366,1146.0881275714994,2525,-71.095493220129,42.41373103968218,2018-05-25 15:09:52 EDT
EJA774,799.2463814862803,4625,-71.09853136208748,42.40925860052486,2018-05-25 15:11:07 EDT
AAL333,1588.2285203969652,2550,-71.098406,42.407087,2018-05-26 09:14:51 EDT
AAL1398,119.47350580708536,2475,-71.09846332325142,42.41112071990345,2018-05-26 12:30:23 EDT
DAL9760,1117.4925045694943,4775,-71.09835776091843,42.40838543166031,2018-05-26 16:57:49 EDT
JBU1301,555.6444216229796,2650,-71.098597,42.409927,2018-05-26 17:01:53 EDT
JBU19,827.9735383713714,2775,-71.096362,42.413139,2018-05-26 17:03:10 EDT
AAL1543,1894.064085789046,2525,-71.097835,42.406265,2018-05-26 17:07:41 EDT
JBU641,1148.03379827673,3450,-71.09598794078371,42.414032747595506,2018-05-26 17:14:02 EDT
DLH423,2362.5259330953863,1950,-71.097064,42.405039,2018-05-26 17:19:32 EDT
UAL2045,768.4122436744749,2350,-71.09642729341725,42.41295980377054,2018-05-26 17:21:53 EDT
SKV7607,1059.2830439278587,2950,-71.09553725281978,42.41342728653225,2018-05-26 17:25:01 EDT
JBU1907,755.4406410856931,2625,-71.0966168341836,42.41303733634176,2018-05-26 17:30:23 EDT
CFYLD,776.8504939058113,4600,-71.0971466327714,42.41335845080365,2018-05-26 17:31:50 EDT
VIR122,2364.6359439917583,2725,-71.090969,42.414871,2018-05-26 17:41:37 EDT
JBU877,2442.9554438108275,2675,-71.09064024042388,42.414891544550116,2018-05-26 17:44:44 EDT
DAL256,1387.1866403131442,2425,-71.098335,42.407639,2018-05-26 17:47:09 EDT
IBE6166,1734.3616477768505,3125,-71.097211,42.406769,2018-05-26 17:51:35 EDT
AAL1530,2004.160316013108,2875,-71.093278,42.415421,2018-05-26 17:53:19 EDT
JBU471,1526.848589046287,2575,-71.09467573244531,42.41459093753906,2018-05-26 17:55:25 EDT
N435DH,388.6159045751857,1275,-71.09707051003764,42.411846804327325,2018-05-26 20:51:32 EDT
KAP617,2209.8642867649082,2200,-71.097835,42.405396,2018-05-27 16:39:11 EDT
GAJ800,1556.5059986357855,3925,-71.09761071507681,42.407223725300916,2018-05-28 12:08:22 EDT
AAL2264,1351.9053279743557,2475,-71.094777,42.414001,2018-05-29 06:11:30 EDT
UAL2214,1212.0751234008446,2750,-71.09500957205006,42.413619805536904,2018-05-29 06:18:35 EDT
SKV7677,939.6572688952875,2625,-71.09639411131721,42.413546282945,2018-05-29 06:32:42 EDT
JBU597,777.7737399524821,2650,-71.09654323691153,42.41307159735198,2018-05-29 06:37:20 EDT
AAL2320,574.5234149179528,2900,-71.098661,42.40988,2018-05-29 06:39:32 EDT
JBU515,869.3542733480463,3075,-71.0962303253383,42.41320233470358,2018-05-29 06:42:40 EDT
JBU1077,151.08411825551255,2750,-71.09835565570003,42.41185707127266,2018-05-29 06:48:31 EDT
DAL2767,1298.0078712428895,2650,-71.09491445588671,42.41389242733063,2018-05-29 06:54:34 EDT
AAL2538,1871.3783860857175,2375,-71.098272,42.406311,2018-05-29 06:59:43 EDT
JBU133,562.4369777479283,2725,-71.09707056181239,42.412628601044766,2018-05-29 07:26:12 EDT
JBU1039,754.6124392460747,2400,-71.09863359242814,42.40938572671415,2018-05-29 07:32:51 EDT
ASA25,1688.5521639711699,2425,-71.09385260548977,42.41461977446787,2018-05-29 07:38:59 EDT
DAL2913,1454.1878417883947,2925,-71.098459,42.407455,2018-05-29 07:41:36 EDT
DAL2651,1259.656865329019,2525,-71.09502659880555,42.41382710010731,2018-05-29 07:43:46 EDT
JBU287,865.5697747423744,2850,-71.09640597931589,42.41329935623655,2018-05-29 07:46:06 EDT
AAL166,419.33194508989743,2325,-71.09857928983665,42.41030407572896,2018-05-29 07:53:54 EDT
ASA1351,329.3021368277864,2375,-71.09892675298913,42.410629779878285,2018-05-29 08:07:49 EDT
UAL1254,960.2492372489648,2850,-71.09868187389239,42.40882373346717,2018-05-29 08:15:12 EDT
CFEMT,469.3828810356446,4300,-71.09747953876727,42.41253352308221,2018-05-29 08:16:27 EDT
AAL2303,736.6772820880568,2350,-71.098459,42.409424,2018-05-29 08:23:34 EDT
AAL1274,2013.6142362175717,2575,-71.09815,42.405923,2018-05-29 08:25:48 EDT
JBU2819,886.2564718719675,2500,-71.09617190579758,42.413225544292914,2018-05-29 08:42:14 EDT
JBU895,1260.998699171785,2975,-71.0985207340993,42.40799336086865,2018-05-29 08:44:31 EDT
AAL333,1238.380644905447,2625,-71.09513479879817,42.41382577096126,2018-05-29 09:15:07 EDT
ASA1363,1173.0679369625423,3150,-71.095723,42.413977,2018-05-29 09:26:18 EDT
ASA737,527.7894910058359,2450,-71.0973797043422,42.41267600223202,2018-05-29 09:31:50 EDT
JBU269,1478.0453277600482,2800,-71.09822544112147,42.40740018755985,2018-05-29 09:41:47 EDT
JBU619,204.75659941322954,2650,-71.09850054723513,42.41088881855345,2018-05-29 09:52:18 EDT
ASA1353,1229.600810423757,2700,-71.09558274304058,42.41408947174573,2018-05-29 10:29:54 EDT
AAL2251,611.2136636939682,2475,-71.09867176820293,42.4097830867776,2018-05-29 10:33:42 EDT
JBU2069,1505.7961518502843,2575,-71.098725,42.40732,2018-05-29 10:35:48 EDT
N842CA,565.7806109132354,2750,-71.09816671665914,42.41298412258837,2018-05-30 13:44:46 EDT
N435DH,1731.7326383020277,750,-71.09219118505877,42.41264307872839,2018-05-30 15:38:11 EDT
AVA209,592.0246830188215,3225,-71.0982979191947,42.409825926743345,2018-05-31 00:47:54 EDT
