hour_date,hour,datetime,wind_direction,wind_speed,temperature
2018-11-01,1,2018-11-01T04:54:00Z,220,8.941664,58
2018-11-01,2,2018-11-01T06:00:00Z,220,8.941664,58
2018-11-01,3,2018-11-01T06:54:00Z,230,8.941664,58
2018-11-01,4,2018-11-01T07:54:00Z,220,6.025904,58
2018-11-01,5,2018-11-01T09:00:00Z,220,5.053984,58
2018-11-01,6,2018-11-01T09:54:00Z,220,6.997824,58
2018-11-01,7,2018-11-01T10:54:00Z,200,4.082064,57
2018-11-01,8,2018-11-01T12:00:00Z,220,7.969744,58
2018-11-01,9,2018-11-01T12:54:00Z,200,6.025904,58
2018-11-01,10,2018-11-01T13:54:00Z,210,5.053984,58
2018-11-01,11,2018-11-01T15:00:00Z,210,4.082064,61
2018-11-01,12,2018-11-01T15:54:00Z,250,4.082064,62
2018-11-01,13,2018-11-01T16:54:00Z,320,5.053984,63
2018-11-01,14,2018-11-01T18:00:00Z,10,6.025904,62
2018-11-01,15,2018-11-01T19:01:00Z,70,7.969744,57
2018-11-01,16,2018-11-01T19:54:00Z,40,7.969744,56
2018-11-01,17,2018-11-01T21:00:00Z,50,6.997824,55
2018-11-01,18,2018-11-01T22:15:00Z,20,6.025904,54
2018-11-01,19,2018-11-01T23:28:00Z,60,6.025904,53
2018-11-01,20,2018-11-02T00:00:00Z,60,6.997824,53
2018-11-01,21,2018-11-02T00:54:00Z,60,6.025904,53
2018-11-01,22,2018-11-02T02:23:00Z,100,6.025904,53
2018-11-01,23,2018-11-02T03:00:00Z,70,5.053984,53
2018-11-02,0,2018-11-02T03:54:00Z,60,4.082064,53
2018-11-02,2,2018-11-02T06:00:00Z,70,2.9157599999999997,53
2018-11-02,3,2018-11-02T06:54:00Z,80,5.053984,53
2018-11-02,4,2018-11-02T07:54:00Z,100,5.053984,53
2018-11-02,5,2018-11-02T09:12:00Z,150,4.082064,54
2018-11-02,6,2018-11-02T09:54:00Z,210,13.995648,63
2018-11-02,7,2018-11-02T10:54:00Z,210,12.051808,66
2018-11-02,8,2018-11-02T12:00:00Z,210,13.995648,68
2018-11-02,9,2018-11-02T12:54:00Z,210,13.995648,68
2018-11-02,10,2018-11-02T13:54:00Z,210,13.995648,69
2018-11-02,11,2018-11-02T15:00:00Z,210,20.021552,69
2018-11-02,12,2018-11-02T15:54:00Z,200,12.051808,67
2018-11-02,13,2018-11-02T17:04:00Z,200,14.967568,68
2018-11-02,14,2018-11-02T18:00:00Z,210,13.023728,68
2018-11-02,15,2018-11-02T18:54:00Z,210,13.023728,69
2018-11-02,16,2018-11-02T19:54:00Z,220,11.079888,69
2018-11-02,17,2018-11-02T21:00:00Z,210,9.913584,69
2018-11-02,18,2018-11-02T21:54:00Z,190,12.051808,66
2018-11-02,19,2018-11-02T23:07:00Z,190,11.079888,65
2018-11-02,20,2018-11-03T00:00:00Z,190,8.941664,66
2018-11-02,21,2018-11-03T00:54:00Z,190,11.079888,66
2018-11-02,22,2018-11-03T02:08:00Z,190,9.913584,67
2018-11-02,23,2018-11-03T03:29:00Z,170,6.997824,65
2018-11-03,0,2018-11-03T04:24:00Z,180,13.995648,65
2018-11-03,1,2018-11-03T04:54:00Z,200,15.939488,67
2018-11-03,2,2018-11-03T06:16:00Z,200,20.021552,68
2018-11-03,3,2018-11-03T07:25:00Z,210,15.939488,67
2018-11-03,4,2018-11-03T08:04:00Z,310,8.941664,60
2018-11-03,5,2018-11-03T09:00:00Z,50,6.997824,60
2018-11-03,6,2018-11-03T10:11:00Z,340,9.913584,56
2018-11-03,7,2018-11-03T11:20:00Z,360,7.969744,55
2018-11-03,8,2018-11-03T12:04:00Z,40,9.913584,54
2018-11-03,9,2018-11-03T13:16:00Z,80,11.079888,53
2018-11-03,10,2018-11-03T14:29:00Z,50,2.9157599999999997,53
2018-11-03,11,2018-11-03T15:00:00Z,70,6.997824,53
2018-11-03,12,2018-11-03T15:54:00Z,120,7.969744,54
2018-11-03,13,2018-11-03T17:13:00Z,160,4.082064,56
2018-11-03,14,2018-11-03T18:16:00Z,250,20.993472,64
2018-11-03,15,2018-11-03T18:54:00Z,260,22.937312,58
2018-11-03,16,2018-11-03T19:54:00Z,260,29.935136,55
2018-11-03,17,2018-11-03T21:00:00Z,270,25.075536,53
2018-11-03,18,2018-11-03T21:54:00Z,260,20.993472,52
2018-11-03,19,2018-11-03T22:54:00Z,270,18.077712,51
2018-11-03,20,2018-11-04T00:00:00Z,270,15.939488,50
2018-11-03,21,2018-11-04T00:54:00Z,270,20.021552,50
2018-11-03,22,2018-11-04T01:54:00Z,260,15.939488,49
2018-11-03,23,2018-11-04T03:00:00Z,260,13.995648,49
2018-11-04,0,2018-11-04T03:54:00Z,270,20.993472,49
2018-11-04,1,2018-11-04T06:00:00Z,260,13.023728,47
2018-11-04,2,2018-11-04T06:54:00Z,270,11.079888,46
2018-11-04,3,2018-11-04T07:54:00Z,280,12.051808,46
2018-11-04,4,2018-11-04T09:00:00Z,280,13.023728,45
2018-11-04,5,2018-11-04T09:54:00Z,280,11.079888,44
2018-11-04,6,2018-11-04T10:54:00Z,280,9.913584,44
2018-11-04,7,2018-11-04T12:00:00Z,290,9.913584,43
2018-11-04,8,2018-11-04T12:54:00Z,300,11.079888,45
2018-11-04,9,2018-11-04T13:54:00Z,300,13.023728,46
2018-11-04,10,2018-11-04T15:00:00Z,290,12.051808,49
2018-11-04,11,2018-11-04T15:54:00Z,310,8.941664,49
2018-11-04,12,2018-11-04T16:54:00Z,300,7.969744,52
2018-11-04,13,2018-11-04T18:00:00Z,330,6.997824,54
2018-11-04,15,2018-11-04T19:54:00Z,310,5.053984,54
2018-11-04,16,2018-11-04T21:00:00Z,360,6.025904,53
2018-11-04,17,2018-11-04T21:54:00Z,360,6.025904,50
2018-11-04,18,2018-11-04T22:54:00Z,10,6.025904,48
2018-11-04,19,2018-11-05T00:00:00Z,20,6.997824,46
2018-11-04,20,2018-11-05T00:54:00Z,10,7.969744,45
2018-11-04,21,2018-11-05T01:54:00Z,10,7.969744,45
2018-11-04,22,2018-11-05T03:00:00Z,20,6.997824,44
2018-11-04,23,2018-11-05T03:54:00Z,360,6.025904,44
2018-11-05,0,2018-11-05T05:18:00Z,60,13.995648,47
2018-11-05,1,2018-11-05T06:00:00Z,70,11.079888,47
2018-11-05,2,2018-11-05T06:54:00Z,80,12.051808,47
2018-11-05,3,2018-11-05T07:54:00Z,80,9.913584,47
2018-11-05,4,2018-11-05T09:00:00Z,100,11.079888,48
2018-11-05,5,2018-11-05T09:54:00Z,90,8.941664,48
2018-11-05,6,2018-11-05T10:54:00Z,80,8.941664,48
2018-11-05,7,2018-11-05T12:19:00Z,90,11.079888,49
2018-11-05,8,2018-11-05T12:54:00Z,90,7.969744,49
2018-11-05,9,2018-11-05T13:54:00Z,90,13.995648,50
2018-11-05,10,2018-11-05T15:00:00Z,90,13.023728,50
2018-11-05,11,2018-11-05T15:54:00Z,110,9.913584,51
2018-11-05,12,2018-11-05T16:54:00Z,110,9.913584,52
2018-11-05,13,2018-11-05T18:00:00Z,110,9.913584,52
2018-11-05,14,2018-11-05T18:54:00Z,100,9.913584,52
2018-11-05,15,2018-11-05T19:54:00Z,80,12.051808,52
2018-11-05,16,2018-11-05T21:20:00Z,80,12.051808,52
2018-11-05,17,2018-11-05T21:54:00Z,90,12.051808,51
2018-11-05,18,2018-11-05T23:25:00Z,70,13.023728,51
2018-11-05,19,2018-11-06T00:18:00Z,80,14.967568,51
2018-11-05,20,2018-11-06T01:06:00Z,80,18.077712,51
2018-11-05,21,2018-11-06T01:54:00Z,70,13.023728,52
2018-11-05,22,2018-11-06T03:00:00Z,60,13.023728,52
2018-11-05,23,2018-11-06T04:23:00Z,50,13.995648,52
2018-11-06,0,2018-11-06T05:11:00Z,60,15.939488,52
2018-11-06,1,2018-11-06T06:15:00Z,40,14.967568,51
2018-11-06,2,2018-11-06T07:22:00Z,30,11.079888,51
2018-11-06,3,2018-11-06T08:11:00Z,40,11.079888,51
2018-11-06,4,2018-11-06T09:00:00Z,20,12.051808,49
2018-11-06,5,2018-11-06T09:54:00Z,360,9.913584,48
2018-11-06,6,2018-11-06T10:54:00Z,340,7.969744,48
2018-11-06,7,2018-11-06T12:00:00Z,350,6.997824,48
2018-11-06,8,2018-11-06T12:54:00Z,330,6.025904,49
2018-11-06,9,2018-11-06T14:23:00Z,360,4.082064,49
2018-11-06,12,2018-11-06T16:54:00Z,150,5.053984,51
2018-11-06,13,2018-11-06T18:11:00Z,100,6.025904,50
2018-11-06,14,2018-11-06T19:25:00Z,110,6.997824,51
2018-11-06,15,2018-11-06T19:54:00Z,110,6.997824,52
2018-11-06,16,2018-11-06T21:23:00Z,320,12.051808,53
2018-11-06,17,2018-11-06T22:12:00Z,330,2.9157599999999997,52
2018-11-06,18,2018-11-06T22:54:00Z,160,6.997824,52
2018-11-06,19,2018-11-07T00:00:00Z,190,5.053984,54
2018-11-06,20,2018-11-07T00:54:00Z,210,8.941664,58
2018-11-06,21,2018-11-07T01:54:00Z,220,13.023728,60
2018-11-06,22,2018-11-07T03:00:00Z,230,11.079888,60
2018-11-06,23,2018-11-07T03:54:00Z,230,11.079888,59
2018-11-07,0,2018-11-07T04:54:00Z,220,11.079888,58
2018-11-07,1,2018-11-07T06:00:00Z,230,9.913584,57
2018-11-07,2,2018-11-07T06:54:00Z,230,8.941664,56
2018-11-07,3,2018-11-07T07:54:00Z,230,6.997824,55
2018-11-07,4,2018-11-07T09:00:00Z,240,11.079888,56
2018-11-07,5,2018-11-07T09:54:00Z,260,11.079888,57
2018-11-07,6,2018-11-07T10:54:00Z,220,7.969744,54
2018-11-07,7,2018-11-07T12:00:00Z,240,11.079888,55
2018-11-07,8,2018-11-07T12:54:00Z,220,7.969744,55
2018-11-07,9,2018-11-07T13:54:00Z,240,12.051808,57
2018-11-07,10,2018-11-07T15:00:00Z,260,13.995648,59
2018-11-07,11,2018-11-07T15:54:00Z,250,14.967568,60
2018-11-07,12,2018-11-07T16:54:00Z,230,14.967568,62
2018-11-07,13,2018-11-07T18:00:00Z,240,11.079888,63
2018-11-07,14,2018-11-07T18:54:00Z,240,15.939488,64
2018-11-07,15,2018-11-07T19:54:00Z,250,12.051808,64
2018-11-07,16,2018-11-07T21:00:00Z,250,13.995648,62
2018-11-07,17,2018-11-07T21:54:00Z,240,9.913584,61
2018-11-07,18,2018-11-07T22:54:00Z,230,11.079888,60
2018-11-07,19,2018-11-08T00:00:00Z,220,8.941664,58
2018-11-07,20,2018-11-08T00:54:00Z,220,7.969744,56
2018-11-07,21,2018-11-08T01:54:00Z,230,8.941664,54
2018-11-07,22,2018-11-08T03:00:00Z,230,9.913584,54
2018-11-07,23,2018-11-08T03:54:00Z,220,9.913584,54
2018-11-08,0,2018-11-08T04:54:00Z,280,13.995648,55
2018-11-08,1,2018-11-08T06:00:00Z,280,9.913584,52
2018-11-08,2,2018-11-08T06:54:00Z,280,11.079888,50
2018-11-08,3,2018-11-08T07:54:00Z,280,12.051808,49
2018-11-08,4,2018-11-08T09:00:00Z,260,9.913584,48
2018-11-08,5,2018-11-08T09:54:00Z,270,9.913584,47
2018-11-08,6,2018-11-08T10:54:00Z,280,13.023728,47
2018-11-08,7,2018-11-08T12:00:00Z,290,12.051808,46
2018-11-08,8,2018-11-08T12:54:00Z,290,8.941664,46
2018-11-08,9,2018-11-08T13:54:00Z,280,8.941664,48
2018-11-08,10,2018-11-08T15:00:00Z,290,8.941664,49
2018-11-08,11,2018-11-08T15:54:00Z,290,9.913584,52
2018-11-08,12,2018-11-08T16:54:00Z,260,6.997824,53
2018-11-08,13,2018-11-08T18:00:00Z,290,7.969744,55
2018-11-08,14,2018-11-08T18:54:00Z,300,9.913584,56
2018-11-08,15,2018-11-08T19:54:00Z,280,8.941664,56
2018-11-08,16,2018-11-08T21:00:00Z,290,8.941664,54
2018-11-08,17,2018-11-08T21:54:00Z,300,11.079888,52
2018-11-08,18,2018-11-08T22:54:00Z,300,8.941664,50
2018-11-08,19,2018-11-09T00:00:00Z,300,7.969744,49
2018-11-08,20,2018-11-09T00:54:00Z,290,7.969744,48
2018-11-08,21,2018-11-09T01:54:00Z,290,7.969744,47
2018-11-08,22,2018-11-09T03:00:00Z,290,7.969744,46
2018-11-08,23,2018-11-09T03:54:00Z,290,6.025904,45
2018-11-09,0,2018-11-09T04:54:00Z,300,7.969744,45
2018-11-09,1,2018-11-09T06:00:00Z,280,6.025904,43
2018-11-09,2,2018-11-09T06:54:00Z,310,6.997824,43
2018-11-09,3,2018-11-09T07:54:00Z,300,6.997824,42
2018-11-09,4,2018-11-09T09:00:00Z,290,8.941664,42
2018-11-09,5,2018-11-09T09:54:00Z,310,6.997824,41
2018-11-09,6,2018-11-09T10:54:00Z,320,7.969744,40
2018-11-09,7,2018-11-09T12:00:00Z,340,6.997824,40
2018-11-09,8,2018-11-09T12:54:00Z,360,7.969744,43
2018-11-09,9,2018-11-09T13:54:00Z,10,6.025904,47
2018-11-09,10,2018-11-09T15:00:00Z,80,13.023728,50
2018-11-09,11,2018-11-09T15:54:00Z,90,15.939488,50
2018-11-09,12,2018-11-09T16:54:00Z,90,15.939488,50
2018-11-09,13,2018-11-09T18:00:00Z,100,13.023728,50
2018-11-09,14,2018-11-09T18:54:00Z,110,13.023728,50
2018-11-09,15,2018-11-09T19:54:00Z,100,13.995648,49
2018-11-09,16,2018-11-09T21:00:00Z,90,17.105792,49
2018-11-09,17,2018-11-09T21:54:00Z,90,15.939488,50
2018-11-09,18,2018-11-09T22:54:00Z,90,11.079888,50
2018-11-09,19,2018-11-10T00:25:00Z,70,12.051808,49
2018-11-09,20,2018-11-10T01:13:00Z,80,18.077712,49
2018-11-09,21,2018-11-10T02:19:00Z,80,26.047456,49
2018-11-09,22,2018-11-10T03:00:00Z,80,25.075536,49
2018-11-09,23,2018-11-10T04:26:00Z,80,20.993472,50
2018-11-10,0,2018-11-10T05:28:00Z,70,21.965392,50
2018-11-10,1,2018-11-10T06:03:00Z,60,22.937312,50
2018-11-10,2,2018-11-10T07:20:00Z,50,22.937312,50
2018-11-10,3,2018-11-10T07:54:00Z,50,22.937312,49
2018-11-10,4,2018-11-10T09:00:00Z,20,13.023728,49
2018-11-10,5,2018-11-10T10:20:00Z,350,7.969744,49
2018-11-10,6,2018-11-10T10:54:00Z,340,6.025904,49
2018-11-10,7,2018-11-10T12:00:00Z,340,6.025904,48
2018-11-10,8,2018-11-10T12:54:00Z,270,7.969744,48
2018-11-10,9,2018-11-10T14:05:00Z,270,8.941664,48
2018-11-10,10,2018-11-10T15:23:00Z,280,13.995648,48
2018-11-10,11,2018-11-10T16:22:00Z,290,26.047456,46
2018-11-10,12,2018-11-10T16:54:00Z,270,15.939488,46
2018-11-10,13,2018-11-10T18:00:00Z,280,17.105792,48
2018-11-10,14,2018-11-10T18:54:00Z,270,15.939488,48
2018-11-10,15,2018-11-10T19:54:00Z,270,17.105792,46
2018-11-10,16,2018-11-10T21:00:00Z,270,13.995648,44
2018-11-10,17,2018-11-10T21:54:00Z,280,18.077712,42
2018-11-10,18,2018-11-10T22:54:00Z,280,17.105792,41
2018-11-10,19,2018-11-11T00:00:00Z,270,19.049632,40
2018-11-10,20,2018-11-11T00:54:00Z,270,18.077712,38
2018-11-10,21,2018-11-11T01:54:00Z,260,13.023728,38
2018-11-10,22,2018-11-11T03:00:00Z,260,18.077712,38
2018-11-10,23,2018-11-11T03:54:00Z,260,14.967568,38
2018-11-11,0,2018-11-11T04:54:00Z,260,17.105792,37
2018-11-11,1,2018-11-11T06:00:00Z,260,13.995648,37
2018-11-11,2,2018-11-11T06:54:00Z,260,8.941664,37
2018-11-11,3,2018-11-11T07:54:00Z,260,14.967568,37
2018-11-11,4,2018-11-11T09:00:00Z,260,11.079888,37
2018-11-11,5,2018-11-11T09:54:00Z,280,14.967568,37
2018-11-11,6,2018-11-11T10:54:00Z,280,12.051808,36
2018-11-11,7,2018-11-11T12:00:00Z,280,15.939488,36
2018-11-11,8,2018-11-11T12:54:00Z,280,11.079888,37
2018-11-11,9,2018-11-11T13:54:00Z,280,13.023728,38
2018-11-11,10,2018-11-11T15:00:00Z,290,8.941664,40
2018-11-11,11,2018-11-11T15:54:00Z,290,15.939488,42
2018-11-11,12,2018-11-11T16:54:00Z,270,13.023728,44
2018-11-11,13,2018-11-11T18:00:00Z,310,9.913584,45
2018-11-11,14,2018-11-11T18:54:00Z,280,12.051808,46
2018-11-11,15,2018-11-11T19:54:00Z,280,9.913584,46
2018-11-11,16,2018-11-11T21:00:00Z,270,11.079888,44
2018-11-11,17,2018-11-11T21:54:00Z,280,7.969744,43
2018-11-11,18,2018-11-11T22:54:00Z,290,9.913584,43
2018-11-11,19,2018-11-12T00:00:00Z,280,11.079888,41
2018-11-11,20,2018-11-12T00:54:00Z,290,8.941664,40
2018-11-11,21,2018-11-12T01:54:00Z,280,8.941664,39
2018-11-11,22,2018-11-12T03:00:00Z,280,9.913584,38
2018-11-11,23,2018-11-12T03:54:00Z,280,9.913584,38
2018-11-12,0,2018-11-12T04:54:00Z,280,8.941664,37
2018-11-12,1,2018-11-12T06:00:00Z,290,7.969744,36
2018-11-12,2,2018-11-12T06:54:00Z,290,7.969744,35
2018-11-12,3,2018-11-12T07:54:00Z,290,5.053984,35
2018-11-12,4,2018-11-12T09:00:00Z,290,6.025904,35
2018-11-12,5,2018-11-12T09:54:00Z,300,5.053984,35
2018-11-12,6,2018-11-12T10:54:00Z,300,4.082064,35
2018-11-12,10,2018-11-12T15:00:00Z,180,6.025904,42
2018-11-12,11,2018-11-12T15:54:00Z,190,7.969744,45
2018-11-12,12,2018-11-12T16:54:00Z,230,8.941664,47
2018-11-12,13,2018-11-12T18:00:00Z,240,6.997824,48
2018-11-12,14,2018-11-12T18:54:00Z,220,6.997824,49
2018-11-12,15,2018-11-12T19:54:00Z,230,9.913584,49
2018-11-12,16,2018-11-12T21:00:00Z,180,8.941664,47
2018-11-12,17,2018-11-12T21:54:00Z,210,8.941664,47
2018-11-12,18,2018-11-12T22:54:00Z,180,6.997824,45
2018-11-12,19,2018-11-13T00:00:00Z,190,6.997824,45
2018-11-12,20,2018-11-13T00:54:00Z,190,7.969744,44
2018-11-12,21,2018-11-13T01:54:00Z,190,7.969744,45
2018-11-12,22,2018-11-13T03:00:00Z,170,6.025904,44
2018-11-12,23,2018-11-13T03:54:00Z,170,4.082064,44
2018-11-13,0,2018-11-13T04:54:00Z,160,6.025904,45
2018-11-13,1,2018-11-13T06:00:00Z,140,8.941664,46
2018-11-13,2,2018-11-13T06:54:00Z,130,8.941664,46
2018-11-13,3,2018-11-13T07:54:00Z,130,13.023728,46
2018-11-13,4,2018-11-13T09:29:00Z,140,12.051808,47
2018-11-13,5,2018-11-13T10:19:00Z,120,7.969744,48
2018-11-13,6,2018-11-13T10:54:00Z,120,12.051808,49
2018-11-13,7,2018-11-13T12:18:00Z,130,8.941664,50
2018-11-13,8,2018-11-13T12:54:00Z,140,7.969744,50
2018-11-13,9,2018-11-13T14:16:00Z,160,9.913584,53
2018-11-13,10,2018-11-13T15:00:00Z,150,13.023728,54
2018-11-13,11,2018-11-13T16:29:00Z,100,11.079888,53
2018-11-13,12,2018-11-13T16:54:00Z,100,6.997824,53
2018-11-13,13,2018-11-13T18:09:00Z,350,6.997824,54
2018-11-13,14,2018-11-13T19:09:00Z,320,15.939488,49
2018-11-13,15,2018-11-13T20:27:00Z,310,13.023728,49
2018-11-13,16,2018-11-13T21:25:00Z,300,13.995648,47
2018-11-13,17,2018-11-13T21:54:00Z,290,14.967568,46
2018-11-13,18,2018-11-13T22:54:00Z,300,11.079888,47
2018-11-13,19,2018-11-13T23:54:00Z,300,15.939488,46
2018-11-13,20,2018-11-14T00:54:00Z,290,14.967568,45
2018-11-13,21,2018-11-14T01:54:00Z,290,13.023728,45
2018-11-13,22,2018-11-14T02:54:00Z,270,13.023728,44
2018-11-13,23,2018-11-14T03:54:00Z,280,15.939488,44
2018-11-14,0,2018-11-14T04:54:00Z,300,19.049632,42
2018-11-14,1,2018-11-14T05:54:00Z,300,19.049632,40
2018-11-14,2,2018-11-14T06:54:00Z,300,24.103616,37
2018-11-14,3,2018-11-14T07:54:00Z,290,13.023728,35
2018-11-14,4,2018-11-14T08:54:00Z,280,9.913584,34
2018-11-14,5,2018-11-14T09:54:00Z,270,13.023728,34
2018-11-14,6,2018-11-14T10:54:00Z,280,9.913584,34
2018-11-14,7,2018-11-14T11:54:00Z,280,11.079888,35
2018-11-14,8,2018-11-14T12:54:00Z,290,19.049632,35
2018-11-14,9,2018-11-14T13:54:00Z,290,18.077712,36
2018-11-14,10,2018-11-14T14:54:00Z,290,21.965392,36
2018-11-14,11,2018-11-14T15:54:00Z,320,19.049632,36
2018-11-14,12,2018-11-14T16:54:00Z,300,20.993472,37
2018-11-14,13,2018-11-14T17:54:00Z,300,21.965392,36
2018-11-14,14,2018-11-14T18:54:00Z,300,15.939488,35
2018-11-14,15,2018-11-14T19:54:00Z,320,17.105792,35
2018-11-14,16,2018-11-14T20:54:00Z,310,18.077712,34
2018-11-14,17,2018-11-14T21:54:00Z,320,13.023728,33
2018-11-14,18,2018-11-14T22:54:00Z,320,13.995648,32
2018-11-14,19,2018-11-14T23:54:00Z,350,13.023728,31
2018-11-14,20,2018-11-15T00:54:00Z,340,9.913584,30
2018-11-14,21,2018-11-15T01:54:00Z,350,9.913584,27
2018-11-14,22,2018-11-15T02:54:00Z,340,8.941664,26
2018-11-14,23,2018-11-15T03:54:00Z,330,8.941664,25
2018-11-15,0,2018-11-15T04:54:00Z,310,6.025904,25
2018-11-15,1,2018-11-15T05:54:00Z,320,11.079888,24
2018-11-15,2,2018-11-15T06:54:00Z,320,13.023728,24
2018-11-15,3,2018-11-15T07:54:00Z,320,9.913584,24
2018-11-15,4,2018-11-15T08:54:00Z,320,14.967568,23
2018-11-15,5,2018-11-15T09:54:00Z,330,8.941664,23
2018-11-15,6,2018-11-15T10:54:00Z,320,8.941664,24
2018-11-15,7,2018-11-15T11:54:00Z,330,5.053984,23
2018-11-15,8,2018-11-15T12:54:00Z,360,6.025904,24
2018-11-15,10,2018-11-15T14:54:00Z,350,2.9157599999999997,27
2018-11-15,12,2018-11-15T16:54:00Z,20,2.9157599999999997,31
2018-11-15,14,2018-11-15T18:54:00Z,80,4.082064,31
2018-11-15,16,2018-11-15T21:13:00Z,50,7.969744,33
2018-11-15,17,2018-11-15T21:54:00Z,20,11.079888,33
2018-11-15,18,2018-11-15T22:54:00Z,360,7.969744,33
2018-11-15,19,2018-11-16T00:00:00Z,100,11.079888,38
2018-11-15,20,2018-11-16T01:23:00Z,90,7.969744,34
2018-11-15,21,2018-11-16T01:54:00Z,120,11.079888,34
2018-11-15,22,2018-11-16T03:00:00Z,100,13.995648,35
2018-11-15,23,2018-11-16T03:54:00Z,80,20.021552,34
2018-11-16,0,2018-11-16T04:54:00Z,70,20.993472,35
2018-11-16,1,2018-11-16T06:00:00Z,80,21.965392,36
2018-11-16,2,2018-11-16T06:54:00Z,80,28.963216,37
2018-11-16,3,2018-11-16T07:54:00Z,80,27.991296,39
2018-11-16,4,2018-11-16T09:00:00Z,80,27.019376,40
2018-11-16,5,2018-11-16T09:54:00Z,70,27.019376,42
2018-11-16,6,2018-11-16T11:22:00Z,80,25.075536,44
2018-11-16,7,2018-11-16T12:00:00Z,70,25.075536,44
2018-11-16,8,2018-11-16T13:12:00Z,50,20.021552,45
2018-11-16,9,2018-11-16T14:26:00Z,360,20.021552,44
2018-11-16,10,2018-11-16T15:21:00Z,360,18.077712,45
2018-11-16,11,2018-11-16T15:54:00Z,340,14.967568,38
2018-11-16,12,2018-11-16T17:19:00Z,310,14.967568,36
2018-11-16,13,2018-11-16T17:54:00Z,300,15.939488,36
2018-11-16,14,2018-11-16T18:54:00Z,310,14.967568,36
2018-11-16,15,2018-11-16T20:29:00Z,300,11.079888,37
2018-11-16,16,2018-11-16T20:54:00Z,290,11.079888,37
2018-11-16,17,2018-11-16T21:54:00Z,270,13.995648,38
2018-11-16,18,2018-11-16T22:54:00Z,260,8.941664,38
2018-11-16,19,2018-11-16T23:54:00Z,250,8.941664,38
2018-11-16,20,2018-11-17T00:54:00Z,240,12.051808,37
2018-11-16,21,2018-11-17T01:54:00Z,240,13.023728,39
2018-11-16,22,2018-11-17T02:54:00Z,230,12.051808,37
2018-11-16,23,2018-11-17T03:54:00Z,240,9.913584,38
2018-11-17,0,2018-11-17T04:54:00Z,240,13.995648,39
2018-11-17,1,2018-11-17T05:54:00Z,220,9.913584,38
2018-11-17,2,2018-11-17T06:54:00Z,230,12.051808,37
2018-11-17,3,2018-11-17T07:54:00Z,240,11.079888,39
2018-11-17,4,2018-11-17T08:54:00Z,220,13.995648,39
2018-11-17,5,2018-11-17T09:54:00Z,240,11.079888,41
2018-11-17,6,2018-11-17T10:54:00Z,230,8.941664,41
2018-11-17,7,2018-11-17T11:54:00Z,230,9.913584,41
2018-11-17,8,2018-11-17T12:54:00Z,220,9.913584,41
2018-11-17,9,2018-11-17T13:54:00Z,220,12.051808,42
2018-11-17,10,2018-11-17T14:54:00Z,240,11.079888,46
2018-11-17,11,2018-11-17T15:54:00Z,250,12.051808,47
2018-11-17,12,2018-11-17T16:54:00Z,270,11.079888,48
2018-11-17,13,2018-11-17T17:54:00Z,270,13.023728,48
2018-11-17,14,2018-11-17T18:54:00Z,270,13.023728,47
2018-11-17,15,2018-11-17T19:54:00Z,260,13.995648,47
2018-11-17,16,2018-11-17T20:54:00Z,250,9.913584,46
2018-11-17,17,2018-11-17T21:54:00Z,260,7.969744,46
2018-11-17,18,2018-11-17T22:54:00Z,280,11.079888,46
2018-11-17,19,2018-11-17T23:54:00Z,280,11.079888,45
2018-11-17,20,2018-11-18T00:54:00Z,280,9.913584,44
2018-11-17,21,2018-11-18T01:54:00Z,280,9.913584,44
2018-11-17,22,2018-11-18T02:54:00Z,270,15.939488,43
2018-11-17,23,2018-11-18T03:54:00Z,270,12.051808,43
2018-11-18,0,2018-11-18T04:54:00Z,260,6.997824,41
2018-11-18,1,2018-11-18T05:54:00Z,280,9.913584,41
2018-11-18,2,2018-11-18T06:54:00Z,290,6.997824,41
2018-11-18,3,2018-11-18T07:54:00Z,280,7.969744,40
2018-11-18,4,2018-11-18T08:54:00Z,290,8.941664,40
2018-11-18,5,2018-11-18T09:54:00Z,290,6.997824,40
2018-11-18,6,2018-11-18T10:54:00Z,340,8.941664,39
2018-11-18,7,2018-11-18T11:54:00Z,360,7.969744,38
2018-11-18,8,2018-11-18T12:54:00Z,360,7.969744,38
2018-11-18,9,2018-11-18T13:54:00Z,360,6.025904,39
2018-11-18,10,2018-11-18T14:54:00Z,340,5.053984,40
2018-11-18,11,2018-11-18T15:54:00Z,290,4.082064,41
2018-11-18,12,2018-11-18T16:54:00Z,10,2.9157599999999997,41
2018-11-18,13,2018-11-18T17:54:00Z,100,4.082064,41
2018-11-18,14,2018-11-18T18:54:00Z,110,5.053984,40
2018-11-18,15,2018-11-18T19:54:00Z,110,5.053984,40
2018-11-18,16,2018-11-18T20:54:00Z,120,6.025904,39
2018-11-18,17,2018-11-18T21:54:00Z,160,6.025904,40
2018-11-18,18,2018-11-18T22:54:00Z,150,6.997824,39
2018-11-18,19,2018-11-18T23:54:00Z,190,6.025904,40
2018-11-18,20,2018-11-19T00:54:00Z,210,5.053984,40
2018-11-18,21,2018-11-19T01:54:00Z,230,6.025904,41
2018-11-18,22,2018-11-19T02:54:00Z,210,5.053984,40
2018-11-19,0,2018-11-19T04:54:00Z,20,2.9157599999999997,40
2018-11-19,1,2018-11-19T05:49:00Z,350,4.082064,39
2018-11-19,3,2018-11-19T07:54:00Z,360,4.082064,37
2018-11-19,4,2018-11-19T09:15:00Z,20,5.053984,36
2018-11-19,5,2018-11-19T10:17:00Z,360,4.082064,36
2018-11-19,6,2018-11-19T10:54:00Z,360,6.997824,37
2018-11-19,7,2018-11-19T11:54:00Z,350,6.025904,36
2018-11-19,8,2018-11-19T12:54:00Z,340,6.025904,37
2018-11-19,9,2018-11-19T13:54:00Z,300,4.082064,38
2018-11-19,10,2018-11-19T14:54:00Z,340,5.053984,38
2018-11-19,11,2018-11-19T15:54:00Z,320,5.053984,38
2018-11-19,12,2018-11-19T17:03:00Z,330,6.025904,39
2018-11-19,13,2018-11-19T18:20:00Z,300,7.969744,39
2018-11-19,14,2018-11-19T18:54:00Z,290,5.053984,39
2018-11-19,15,2018-11-19T19:54:00Z,320,5.053984,40
2018-11-19,16,2018-11-19T21:11:00Z,330,2.9157599999999997,40
2018-11-19,17,2018-11-19T21:54:00Z,310,4.082064,40
2018-11-19,18,2018-11-19T22:54:00Z,350,4.082064,40
2018-11-19,19,2018-11-19T23:54:00Z,350,5.053984,41
2018-11-19,20,2018-11-20T00:54:00Z,360,6.025904,40
2018-11-19,21,2018-11-20T01:54:00Z,360,4.082064,39
2018-11-19,22,2018-11-20T02:54:00Z,350,6.025904,39
2018-11-19,23,2018-11-20T03:54:00Z,350,6.025904,39
2018-11-20,0,2018-11-20T04:54:00Z,10,6.025904,39
2018-11-20,1,2018-11-20T05:54:00Z,10,4.082064,39
2018-11-20,2,2018-11-20T06:54:00Z,20,5.053984,39
2018-11-20,3,2018-11-20T07:54:00Z,10,5.053984,39
2018-11-20,4,2018-11-20T09:12:00Z,360,7.969744,39
2018-11-20,5,2018-11-20T09:54:00Z,20,7.969744,39
2018-11-20,6,2018-11-20T10:54:00Z,10,9.913584,39
2018-11-20,7,2018-11-20T12:29:00Z,360,11.079888,37
2018-11-20,8,2018-11-20T13:27:00Z,20,9.913584,39
2018-11-20,9,2018-11-20T13:54:00Z,10,8.941664,40
2018-11-20,10,2018-11-20T14:54:00Z,20,11.079888,41
2018-11-20,11,2018-11-20T16:11:00Z,40,13.995648,41
2018-11-20,12,2018-11-20T16:54:00Z,40,9.913584,41
2018-11-20,13,2018-11-20T17:54:00Z,20,11.079888,41
2018-11-20,14,2018-11-20T18:54:00Z,360,11.079888,40
2018-11-20,15,2018-11-20T19:54:00Z,340,8.941664,37
2018-11-20,16,2018-11-20T20:54:00Z,320,9.913584,36
2018-11-20,17,2018-11-20T22:15:00Z,320,13.023728,35
2018-11-20,18,2018-11-20T23:08:00Z,330,11.079888,35
2018-11-20,19,2018-11-20T23:54:00Z,320,7.969744,36
2018-11-20,20,2018-11-21T00:54:00Z,290,6.997824,36
2018-11-20,21,2018-11-21T01:54:00Z,280,6.997824,35
2018-11-20,22,2018-11-21T02:54:00Z,260,6.997824,36
2018-11-20,23,2018-11-21T03:54:00Z,270,6.997824,37
2018-11-21,0,2018-11-21T04:54:00Z,270,8.941664,36
2018-11-21,1,2018-11-21T05:54:00Z,290,11.079888,35
2018-11-21,2,2018-11-21T06:54:00Z,290,13.023728,34
2018-11-21,3,2018-11-21T07:54:00Z,280,9.913584,33
2018-11-21,4,2018-11-21T08:54:00Z,280,7.969744,33
2018-11-21,5,2018-11-21T09:54:00Z,250,8.941664,34
2018-11-21,6,2018-11-21T10:54:00Z,220,7.969744,32
2018-11-21,7,2018-11-21T11:54:00Z,220,12.051808,33
2018-11-21,8,2018-11-21T12:54:00Z,230,13.023728,34
2018-11-21,9,2018-11-21T13:54:00Z,230,11.079888,35
2018-11-21,10,2018-11-21T14:54:00Z,220,11.079888,38
2018-11-21,11,2018-11-21T15:54:00Z,210,15.939488,39
2018-11-21,12,2018-11-21T16:54:00Z,230,14.967568,41
2018-11-21,13,2018-11-21T17:54:00Z,220,15.939488,41
2018-11-21,14,2018-11-21T18:54:00Z,230,18.077712,42
2018-11-21,15,2018-11-21T19:54:00Z,230,17.105792,42
2018-11-21,16,2018-11-21T20:54:00Z,230,13.023728,41
2018-11-21,17,2018-11-21T22:15:00Z,300,13.995648,39
2018-11-21,18,2018-11-21T22:54:00Z,290,14.967568,39
2018-11-21,19,2018-11-21T23:54:00Z,300,15.939488,36
2018-11-21,20,2018-11-22T00:54:00Z,300,18.077712,34
2018-11-21,21,2018-11-22T01:54:00Z,290,19.049632,32
2018-11-21,22,2018-11-22T02:54:00Z,320,19.049632,29
2018-11-21,23,2018-11-22T03:54:00Z,300,15.939488,26
2018-11-22,0,2018-11-22T04:54:00Z,320,12.051808,24
2018-11-22,1,2018-11-22T05:54:00Z,300,14.967568,22
2018-11-22,2,2018-11-22T06:54:00Z,300,13.995648,21
2018-11-22,3,2018-11-22T07:54:00Z,300,13.023728,19
2018-11-22,4,2018-11-22T08:54:00Z,320,17.105792,18
2018-11-22,5,2018-11-22T09:54:00Z,290,15.939488,16
2018-11-22,6,2018-11-22T10:54:00Z,310,12.051808,16
2018-11-22,7,2018-11-22T11:54:00Z,320,17.105792,14
2018-11-22,8,2018-11-22T12:54:00Z,300,14.967568,15
2018-11-22,9,2018-11-22T13:54:00Z,290,18.077712,16
2018-11-22,10,2018-11-22T14:54:00Z,300,19.049632,18
2018-11-22,11,2018-11-22T15:54:00Z,300,19.049632,18
2018-11-22,12,2018-11-22T16:54:00Z,300,19.049632,19
2018-11-22,13,2018-11-22T17:54:00Z,320,20.021552,20
2018-11-22,14,2018-11-22T18:54:00Z,300,18.077712,20
2018-11-22,15,2018-11-22T19:54:00Z,310,15.939488,20
2018-11-22,16,2018-11-22T20:54:00Z,310,13.023728,19
2018-11-22,17,2018-11-22T21:54:00Z,290,17.105792,19
2018-11-22,18,2018-11-22T22:54:00Z,300,9.913584,19
2018-11-22,19,2018-11-22T23:54:00Z,310,18.077712,18
2018-11-22,20,2018-11-23T00:54:00Z,320,17.105792,17
2018-11-22,21,2018-11-23T01:54:00Z,320,14.967568,17
2018-11-22,22,2018-11-23T02:54:00Z,310,15.939488,16
2018-11-22,23,2018-11-23T03:54:00Z,310,17.105792,16
2018-11-23,0,2018-11-23T04:54:00Z,310,14.967568,16
2018-11-23,1,2018-11-23T05:54:00Z,300,12.051808,16
2018-11-23,2,2018-11-23T06:54:00Z,320,13.995648,16
2018-11-23,3,2018-11-23T07:54:00Z,300,9.913584,16
2018-11-23,4,2018-11-23T08:54:00Z,300,11.079888,15
2018-11-23,5,2018-11-23T09:54:00Z,290,14.967568,15
2018-11-23,6,2018-11-23T10:54:00Z,320,14.967568,15
2018-11-23,7,2018-11-23T11:54:00Z,310,12.051808,16
2018-11-23,8,2018-11-23T12:54:00Z,320,11.079888,17
2018-11-23,9,2018-11-23T13:54:00Z,310,9.913584,20
2018-11-23,10,2018-11-23T14:54:00Z,320,11.079888,23
2018-11-23,11,2018-11-23T15:54:00Z,280,7.969744,26
2018-11-23,12,2018-11-23T16:54:00Z,300,7.969744,29
2018-11-23,13,2018-11-23T17:54:00Z,270,7.969744,30
2018-11-23,14,2018-11-23T18:54:00Z,240,8.941664,32
2018-11-23,15,2018-11-23T19:54:00Z,240,8.941664,32
2018-11-23,16,2018-11-23T20:54:00Z,240,8.941664,32
2018-11-23,17,2018-11-23T21:54:00Z,220,9.913584,31
2018-11-23,18,2018-11-23T22:54:00Z,210,7.969744,30
2018-11-23,19,2018-11-23T23:54:00Z,220,12.051808,30
2018-11-23,20,2018-11-24T00:54:00Z,210,11.079888,29
2018-11-23,21,2018-11-24T01:54:00Z,220,13.995648,29
2018-11-23,22,2018-11-24T02:54:00Z,230,9.913584,28
2018-11-23,23,2018-11-24T03:54:00Z,220,8.941664,28
2018-11-24,0,2018-11-24T04:54:00Z,230,9.913584,29
2018-11-24,1,2018-11-24T05:54:00Z,240,9.913584,29
2018-11-24,2,2018-11-24T06:54:00Z,240,9.913584,30
2018-11-24,3,2018-11-24T07:54:00Z,250,8.941664,30
2018-11-24,4,2018-11-24T08:54:00Z,230,7.969744,29
2018-11-24,5,2018-11-24T09:54:00Z,220,8.941664,29
2018-11-24,6,2018-11-24T10:54:00Z,240,11.079888,30
2018-11-24,7,2018-11-24T11:54:00Z,230,13.023728,31
2018-11-24,8,2018-11-24T12:54:00Z,240,13.995648,32
2018-11-24,9,2018-11-24T13:54:00Z,230,9.913584,35
2018-11-24,10,2018-11-24T14:54:00Z,240,8.941664,37
2018-11-24,11,2018-11-24T15:54:00Z,240,12.051808,41
2018-11-24,12,2018-11-24T16:54:00Z,220,12.051808,44
2018-11-24,13,2018-11-24T17:54:00Z,240,12.051808,47
2018-11-24,14,2018-11-24T18:54:00Z,250,9.913584,47
2018-11-24,15,2018-11-24T19:54:00Z,240,9.913584,46
2018-11-24,16,2018-11-24T20:54:00Z,230,8.941664,45
2018-11-24,17,2018-11-24T21:54:00Z,220,4.082064,44
2018-11-24,18,2018-11-24T22:54:00Z,280,2.9157599999999997,45
2018-11-24,19,2018-11-25T00:28:00Z,100,6.025904,41
2018-11-24,20,2018-11-25T00:54:00Z,80,6.997824,41
2018-11-24,21,2018-11-25T01:54:00Z,90,7.969744,40
2018-11-24,22,2018-11-25T02:54:00Z,90,8.941664,45
2018-11-24,23,2018-11-25T03:54:00Z,100,7.969744,46
2018-11-25,0,2018-11-25T04:54:00Z,170,5.053984,46
2018-11-25,1,2018-11-25T05:54:00Z,350,4.082064,46
2018-11-25,2,2018-11-25T06:54:00Z,340,6.025904,44
2018-11-25,3,2018-11-25T07:54:00Z,360,6.997824,43
2018-11-25,4,2018-11-25T09:12:00Z,20,9.913584,44
2018-11-25,5,2018-11-25T09:54:00Z,40,7.969744,45
2018-11-25,6,2018-11-25T10:54:00Z,90,14.967568,47
2018-11-25,7,2018-11-25T11:54:00Z,70,18.077712,47
2018-11-25,8,2018-11-25T13:24:00Z,40,12.051808,48
2018-11-25,9,2018-11-25T13:54:00Z,10,11.079888,48
2018-11-25,10,2018-11-25T14:54:00Z,320,12.051808,45
2018-11-25,11,2018-11-25T16:12:00Z,330,11.079888,44
2018-11-25,12,2018-11-25T16:54:00Z,350,9.913584,46
2018-11-25,13,2018-11-25T17:54:00Z,330,9.913584,46
2018-11-25,14,2018-11-25T18:54:00Z,340,7.969744,46
2018-11-25,15,2018-11-25T19:54:00Z,330,9.913584,46
2018-11-25,16,2018-11-25T20:54:00Z,350,5.053984,45
2018-11-25,17,2018-11-25T21:54:00Z,340,6.025904,45
2018-11-25,18,2018-11-25T22:54:00Z,350,5.053984,45
2018-11-25,19,2018-11-26T00:11:00Z,333,5.053984,45
2018-11-25,21,2018-11-26T01:54:00Z,30,4.082064,44
2018-11-25,22,2018-11-26T03:14:00Z,60,2.9157599999999997,44
2018-11-25,23,2018-11-26T03:54:00Z,80,2.9157599999999997,44
2018-11-26,0,2018-11-26T05:07:00Z,60,4.082064,44
2018-11-26,1,2018-11-26T06:29:00Z,30,4.082064,43
2018-11-26,2,2018-11-26T06:54:00Z,30,6.025904,43
2018-11-26,3,2018-11-26T07:54:00Z,30,6.997824,43
2018-11-26,4,2018-11-26T08:54:00Z,20,2.9157599999999997,43
2018-11-26,5,2018-11-26T10:22:00Z,10,6.997824,42
2018-11-26,6,2018-11-26T10:54:00Z,360,6.025904,42
2018-11-26,7,2018-11-26T12:12:00Z,20,6.997824,42
2018-11-26,8,2018-11-26T13:14:00Z,30,8.941664,43
2018-11-26,9,2018-11-26T13:52:00Z,50,6.025904,45
2018-11-26,10,2018-11-26T14:54:00Z,110,8.941664,46
2018-11-26,11,2018-11-26T16:19:00Z,110,12.051808,47
2018-11-26,12,2018-11-26T16:54:00Z,130,9.913584,47
2018-11-26,13,2018-11-26T18:22:00Z,100,11.079888,47
2018-11-26,14,2018-11-26T18:54:00Z,120,9.913584,47
2018-11-26,15,2018-11-26T19:54:00Z,100,15.939488,47
2018-11-26,16,2018-11-26T20:54:00Z,100,17.105792,46
2018-11-26,17,2018-11-26T22:16:00Z,100,14.967568,46
2018-11-26,18,2018-11-26T23:09:00Z,90,17.105792,45
2018-11-26,19,2018-11-27T00:05:00Z,90,20.021552,46
2018-11-26,20,2018-11-27T01:13:00Z,90,20.021552,45
2018-11-26,21,2018-11-27T01:54:00Z,90,25.075536,45
2018-11-26,22,2018-11-27T03:01:00Z,80,17.105792,45
2018-11-26,23,2018-11-27T03:54:00Z,70,24.103616,45
2018-11-27,0,2018-11-27T05:28:00Z,60,21.965392,44
2018-11-27,1,2018-11-27T05:54:00Z,60,21.965392,44
2018-11-27,2,2018-11-27T06:54:00Z,60,20.993472,45
2018-11-27,3,2018-11-27T07:54:00Z,60,18.077712,45
2018-11-27,4,2018-11-27T08:54:00Z,60,22.937312,46
2018-11-27,5,2018-11-27T09:54:00Z,70,19.049632,47
2018-11-27,6,2018-11-27T11:22:00Z,130,11.079888,48
2018-11-27,7,2018-11-27T12:09:00Z,200,6.025904,47
2018-11-27,8,2018-11-27T13:04:00Z,230,9.913584,47
2018-11-27,9,2018-11-27T13:54:00Z,250,8.941664,46
2018-11-27,10,2018-11-27T15:09:00Z,250,17.105792,41
2018-11-27,11,2018-11-27T16:27:00Z,250,20.021552,42
2018-11-27,12,2018-11-27T16:54:00Z,260,13.995648,43
2018-11-27,13,2018-11-27T17:54:00Z,250,15.939488,43
2018-11-27,14,2018-11-27T19:01:00Z,260,14.967568,45
2018-11-27,15,2018-11-27T19:54:00Z,240,18.077712,45
2018-11-27,16,2018-11-27T20:54:00Z,250,13.023728,44
2018-11-27,17,2018-11-27T21:54:00Z,240,14.967568,43
2018-11-27,18,2018-11-27T22:54:00Z,240,13.023728,42
2018-11-27,19,2018-11-27T23:54:00Z,250,15.939488,41
2018-11-27,20,2018-11-28T00:54:00Z,240,13.995648,41
2018-11-27,21,2018-11-28T01:54:00Z,250,14.967568,40
2018-11-27,22,2018-11-28T02:54:00Z,240,11.079888,39
2018-11-27,23,2018-11-28T03:54:00Z,230,11.079888,38
2018-11-28,0,2018-11-28T04:54:00Z,240,13.023728,38
2018-11-28,1,2018-11-28T05:54:00Z,250,13.023728,38
2018-11-28,2,2018-11-28T06:54:00Z,240,12.051808,38
2018-11-28,3,2018-11-28T07:54:00Z,260,12.051808,37
2018-11-28,4,2018-11-28T08:54:00Z,250,12.051808,37
2018-11-28,5,2018-11-28T09:54:00Z,270,11.079888,37
2018-11-28,6,2018-11-28T10:54:00Z,260,9.913584,38
2018-11-28,7,2018-11-28T11:54:00Z,260,9.913584,38
2018-11-28,8,2018-11-28T12:54:00Z,280,13.995648,39
2018-11-28,9,2018-11-28T13:54:00Z,280,8.941664,40
2018-11-28,10,2018-11-28T14:54:00Z,280,12.051808,43
2018-11-28,11,2018-11-28T15:54:00Z,280,18.077712,42
2018-11-28,12,2018-11-28T16:54:00Z,290,15.939488,42
2018-11-28,13,2018-11-28T17:54:00Z,300,13.023728,43
2018-11-28,14,2018-11-28T18:54:00Z,290,18.077712,42
2018-11-28,15,2018-11-28T19:54:00Z,300,13.023728,43
2018-11-28,16,2018-11-28T20:54:00Z,300,13.995648,43
2018-11-28,17,2018-11-28T21:54:00Z,280,14.967568,42
2018-11-28,18,2018-11-28T22:54:00Z,290,13.023728,43
2018-11-28,19,2018-11-28T23:54:00Z,300,13.023728,41
2018-11-28,20,2018-11-29T00:54:00Z,300,12.051808,41
2018-11-28,21,2018-11-29T01:54:00Z,290,14.967568,40
2018-11-28,22,2018-11-29T02:54:00Z,300,13.023728,40
2018-11-28,23,2018-11-29T03:54:00Z,300,13.995648,39
2018-11-29,0,2018-11-29T04:54:00Z,290,14.967568,39
2018-11-29,1,2018-11-29T05:54:00Z,300,13.995648,40
2018-11-29,2,2018-11-29T06:54:00Z,310,13.995648,40
2018-11-29,3,2018-11-29T07:54:00Z,300,13.023728,40
2018-11-29,4,2018-11-29T08:54:00Z,300,14.967568,40
2018-11-29,5,2018-11-29T09:54:00Z,300,13.995648,40
2018-11-29,6,2018-11-29T10:54:00Z,310,9.913584,40
2018-11-29,7,2018-11-29T11:54:00Z,320,13.023728,40
2018-11-29,8,2018-11-29T12:54:00Z,290,13.995648,41
2018-11-29,9,2018-11-29T13:54:00Z,310,15.939488,43
2018-11-29,10,2018-11-29T14:54:00Z,310,13.023728,44
2018-11-29,11,2018-11-29T15:54:00Z,310,13.995648,44
2018-11-29,12,2018-11-29T16:54:00Z,310,20.021552,45
2018-11-29,14,2018-11-29T18:54:00Z,310,13.995648,46
2018-11-29,15,2018-11-29T19:54:00Z,300,13.995648,45
2018-11-29,16,2018-11-29T20:54:00Z,310,13.995648,44
2018-11-29,17,2018-11-29T21:54:00Z,310,13.023728,43
2018-11-29,18,2018-11-29T22:54:00Z,320,13.023728,42
2018-11-29,20,2018-11-30T00:54:00Z,320,13.995648,40
