hour_date,hour,datetime,wind_direction,wind_speed,temperature
2018-06-01,1,2018-06-01T04:54:00Z,190,6.997824,66
2018-06-01,2,2018-06-01T06:00:00Z,180,6.997824,65
2018-06-01,3,2018-06-01T07:12:00Z,190,7.969744,66
2018-06-01,4,2018-06-01T07:54:00Z,190,6.025904,66
2018-06-01,5,2018-06-01T09:09:00Z,160,5.053984,64
2018-06-01,6,2018-06-01T09:54:00Z,140,4.082064,64
2018-06-01,7,2018-06-01T10:54:00Z,130,5.053984,64
2018-06-01,8,2018-06-01T12:00:00Z,150,5.053984,67
2018-06-01,9,2018-06-01T13:13:00Z,180,5.053984,70
2018-06-01,10,2018-06-01T14:28:00Z,140,5.053984,72
2018-06-01,11,2018-06-01T15:00:00Z,180,6.997824,74
2018-06-01,12,2018-06-01T15:54:00Z,230,11.079888,77
2018-06-01,13,2018-06-01T16:54:00Z,130,6.997824,72
2018-06-01,14,2018-06-01T18:00:00Z,190,7.969744,77
2018-06-01,15,2018-06-01T19:21:00Z,160,6.997824,76
2018-06-01,16,2018-06-01T19:54:00Z,180,8.941664,78
2018-06-01,17,2018-06-01T21:00:00Z,190,8.941664,79
2018-06-01,18,2018-06-01T21:54:00Z,220,7.969744,79
2018-06-01,19,2018-06-01T22:54:00Z,190,6.997824,77
2018-06-01,20,2018-06-02T00:00:00Z,190,7.969744,76
2018-06-01,21,2018-06-02T00:54:00Z,190,6.997824,75
2018-06-01,22,2018-06-02T01:54:00Z,200,6.997824,74
2018-06-01,23,2018-06-02T03:00:00Z,210,6.997824,73
2018-06-02,0,2018-06-02T03:54:00Z,210,6.997824,73
2018-06-02,1,2018-06-02T04:54:00Z,200,6.025904,70
2018-06-02,2,2018-06-02T06:00:00Z,230,6.997824,71
2018-06-02,3,2018-06-02T07:01:00Z,250,6.025904,71
2018-06-02,4,2018-06-02T07:54:00Z,270,6.025904,72
2018-06-02,5,2018-06-02T09:00:00Z,270,5.053984,72
2018-06-02,6,2018-06-02T09:54:00Z,290,7.969744,72
2018-06-02,7,2018-06-02T10:54:00Z,330,6.997824,74
2018-06-02,8,2018-06-02T12:00:00Z,350,7.969744,76
2018-06-02,9,2018-06-02T12:54:00Z,360,8.941664,77
2018-06-02,10,2018-06-02T13:54:00Z,50,11.079888,80
2018-06-02,11,2018-06-02T15:00:00Z,60,13.023728,79
2018-06-02,12,2018-06-02T15:54:00Z,70,11.079888,76
2018-06-02,13,2018-06-02T16:54:00Z,80,13.995648,74
2018-06-02,14,2018-06-02T18:00:00Z,130,6.997824,71
2018-06-02,15,2018-06-02T18:54:00Z,140,7.969744,70
2018-06-02,16,2018-06-02T19:54:00Z,160,2.9157599999999997,68
2018-06-02,18,2018-06-02T21:54:00Z,70,2.9157599999999997,72
2018-06-02,19,2018-06-02T22:54:00Z,90,11.079888,69
2018-06-02,20,2018-06-03T00:00:00Z,80,6.997824,65
2018-06-02,21,2018-06-03T00:54:00Z,100,6.997824,63
2018-06-02,22,2018-06-03T01:54:00Z,90,6.997824,62
2018-06-02,23,2018-06-03T03:00:00Z,80,7.969744,61
2018-06-03,0,2018-06-03T03:54:00Z,100,6.997824,59
2018-06-03,1,2018-06-03T04:54:00Z,100,6.025904,57
2018-06-03,2,2018-06-03T06:00:00Z,60,4.082064,57
2018-06-03,3,2018-06-03T06:54:00Z,50,6.025904,57
2018-06-03,4,2018-06-03T07:54:00Z,20,7.969744,57
2018-06-03,5,2018-06-03T09:00:00Z,40,8.941664,57
2018-06-03,6,2018-06-03T09:54:00Z,90,7.969744,57
2018-06-03,7,2018-06-03T10:54:00Z,80,7.969744,58
2018-06-03,8,2018-06-03T12:25:00Z,70,12.051808,59
2018-06-03,9,2018-06-03T12:54:00Z,70,13.995648,59
2018-06-03,10,2018-06-03T13:54:00Z,80,17.105792,59
2018-06-03,11,2018-06-03T15:00:00Z,70,15.939488,59
2018-06-03,12,2018-06-03T15:54:00Z,80,13.995648,59
2018-06-03,13,2018-06-03T16:54:00Z,80,13.023728,59
2018-06-03,14,2018-06-03T18:00:00Z,90,12.051808,59
2018-06-03,15,2018-06-03T18:54:00Z,80,12.051808,58
2018-06-03,16,2018-06-03T19:54:00Z,90,14.967568,57
2018-06-03,17,2018-06-03T21:00:00Z,90,13.995648,55
2018-06-03,18,2018-06-03T21:54:00Z,110,13.995648,54
2018-06-03,19,2018-06-03T22:54:00Z,120,11.079888,53
2018-06-03,20,2018-06-04T00:00:00Z,120,11.079888,52
2018-06-03,21,2018-06-04T00:54:00Z,120,11.079888,51
2018-06-03,22,2018-06-04T01:54:00Z,100,11.079888,51
2018-06-03,23,2018-06-04T03:00:00Z,90,9.913584,50
2018-06-04,0,2018-06-04T03:54:00Z,130,11.079888,51
2018-06-04,1,2018-06-04T04:54:00Z,110,14.967568,50
2018-06-04,2,2018-06-04T06:00:00Z,130,13.023728,50
2018-06-04,3,2018-06-04T06:54:00Z,140,12.051808,50
2018-06-04,4,2018-06-04T07:54:00Z,140,9.913584,49
2018-06-04,5,2018-06-04T09:00:00Z,120,7.969744,51
2018-06-04,6,2018-06-04T09:54:00Z,110,12.051808,52
2018-06-04,7,2018-06-04T10:54:00Z,100,18.077712,52
2018-06-04,8,2018-06-04T12:21:00Z,100,14.967568,52
2018-06-04,9,2018-06-04T13:28:00Z,90,13.023728,52
2018-06-04,10,2018-06-04T14:10:00Z,90,12.051808,52
2018-06-04,11,2018-06-04T15:00:00Z,90,13.023728,53
2018-06-04,12,2018-06-04T16:25:00Z,70,13.995648,53
2018-06-04,13,2018-06-04T16:54:00Z,70,15.939488,53
2018-06-04,14,2018-06-04T18:00:00Z,70,17.105792,53
2018-06-04,15,2018-06-04T18:54:00Z,60,15.939488,53
2018-06-04,16,2018-06-04T20:05:00Z,60,13.995648,53
2018-06-04,17,2018-06-04T21:00:00Z,50,14.967568,53
2018-06-04,18,2018-06-04T21:54:00Z,50,13.023728,52
2018-06-04,19,2018-06-04T22:54:00Z,20,13.023728,52
2018-06-04,20,2018-06-05T00:19:00Z,360,11.079888,51
2018-06-04,21,2018-06-05T01:29:00Z,10,9.913584,52
2018-06-04,22,2018-06-05T01:54:00Z,10,9.913584,52
2018-06-04,23,2018-06-05T03:28:00Z,340,6.025904,51
2018-06-05,0,2018-06-05T03:54:00Z,350,7.969744,51
2018-06-05,1,2018-06-05T04:54:00Z,350,7.969744,51
2018-06-05,2,2018-06-05T06:00:00Z,340,6.997824,50
2018-06-05,3,2018-06-05T07:02:00Z,330,5.053984,50
2018-06-05,4,2018-06-05T08:27:00Z,340,5.053984,50
2018-06-05,5,2018-06-05T09:00:00Z,300,5.053984,50
2018-06-05,6,2018-06-05T09:52:00Z,360,2.9157599999999997,50
2018-06-05,7,2018-06-05T10:54:00Z,30,2.9157599999999997,51
2018-06-05,8,2018-06-05T12:00:00Z,230,6.025904,51
2018-06-05,9,2018-06-05T12:54:00Z,210,2.9157599999999997,53
2018-06-05,10,2018-06-05T13:54:00Z,180,6.025904,55
2018-06-05,11,2018-06-05T15:00:00Z,130,7.969744,58
2018-06-05,12,2018-06-05T16:28:00Z,100,13.023728,58
2018-06-05,13,2018-06-05T16:54:00Z,90,11.079888,56
2018-06-05,14,2018-06-05T18:00:00Z,100,7.969744,55
2018-06-05,15,2018-06-05T19:19:00Z,40,7.969744,55
2018-06-05,16,2018-06-05T19:54:00Z,70,7.969744,56
2018-06-05,17,2018-06-05T21:00:00Z,120,8.941664,59
2018-06-05,18,2018-06-05T21:54:00Z,130,9.913584,57
2018-06-05,19,2018-06-05T22:54:00Z,140,6.997824,58
2018-06-05,20,2018-06-06T00:00:00Z,70,9.913584,56
2018-06-05,22,2018-06-06T01:54:00Z,40,5.053984,55
2018-06-05,23,2018-06-06T03:19:00Z,40,6.025904,55
2018-06-06,0,2018-06-06T03:54:00Z,20,5.053984,55
2018-06-06,1,2018-06-06T04:54:00Z,360,6.997824,54
2018-06-06,2,2018-06-06T06:00:00Z,360,6.997824,53
2018-06-06,3,2018-06-06T07:27:00Z,360,5.053984,54
2018-06-06,4,2018-06-06T07:54:00Z,350,6.025904,54
2018-06-06,5,2018-06-06T09:00:00Z,20,6.025904,54
2018-06-06,6,2018-06-06T09:54:00Z,360,6.025904,54
2018-06-06,7,2018-06-06T10:54:00Z,350,6.997824,54
2018-06-06,8,2018-06-06T12:00:00Z,10,6.025904,54
2018-06-06,9,2018-06-06T13:10:00Z,40,5.053984,55
2018-06-06,10,2018-06-06T13:54:00Z,30,5.053984,55
2018-06-06,11,2018-06-06T15:00:00Z,70,4.082064,57
2018-06-06,12,2018-06-06T15:54:00Z,110,6.997824,57
2018-06-06,13,2018-06-06T17:16:00Z,140,6.025904,58
2018-06-06,14,2018-06-06T18:00:00Z,130,6.025904,60
2018-06-06,15,2018-06-06T18:54:00Z,120,8.941664,61
2018-06-06,16,2018-06-06T19:54:00Z,120,11.079888,61
2018-06-06,17,2018-06-06T21:00:00Z,110,11.079888,62
2018-06-06,18,2018-06-06T21:54:00Z,100,12.051808,60
2018-06-06,19,2018-06-06T22:54:00Z,100,11.079888,59
2018-06-06,20,2018-06-07T00:00:00Z,120,9.913584,60
2018-06-06,21,2018-06-07T00:54:00Z,160,11.079888,59
2018-06-06,22,2018-06-07T01:54:00Z,190,11.079888,58
2018-06-06,23,2018-06-07T03:00:00Z,190,8.941664,56
2018-06-07,0,2018-06-07T03:54:00Z,210,12.051808,55
2018-06-07,1,2018-06-07T04:54:00Z,210,9.913584,56
2018-06-07,2,2018-06-07T06:00:00Z,220,7.969744,56
2018-06-07,3,2018-06-07T06:54:00Z,220,7.969744,55
2018-06-07,4,2018-06-07T07:54:00Z,220,9.913584,54
2018-06-07,5,2018-06-07T09:00:00Z,210,6.997824,54
2018-06-07,6,2018-06-07T09:54:00Z,210,7.969744,54
2018-06-07,7,2018-06-07T10:54:00Z,200,6.025904,54
2018-06-07,8,2018-06-07T12:00:00Z,190,6.997824,56
2018-06-07,9,2018-06-07T12:54:00Z,170,7.969744,58
2018-06-07,10,2018-06-07T13:54:00Z,180,8.941664,62
2018-06-07,11,2018-06-07T15:00:00Z,190,9.913584,65
2018-06-07,12,2018-06-07T15:54:00Z,190,9.913584,69
2018-06-07,13,2018-06-07T16:54:00Z,220,9.913584,69
2018-06-07,14,2018-06-07T18:00:00Z,190,11.079888,70
2018-06-07,15,2018-06-07T18:54:00Z,200,12.051808,69
2018-06-07,16,2018-06-07T19:54:00Z,200,13.995648,69
2018-06-07,17,2018-06-07T21:00:00Z,200,14.967568,68
2018-06-07,18,2018-06-07T21:54:00Z,190,12.051808,67
2018-06-07,19,2018-06-07T22:54:00Z,200,12.051808,65
2018-06-07,20,2018-06-08T00:00:00Z,200,8.941664,64
2018-06-07,21,2018-06-08T00:54:00Z,190,11.079888,61
2018-06-07,22,2018-06-08T01:54:00Z,200,8.941664,59
2018-06-07,23,2018-06-08T03:00:00Z,220,11.079888,58
2018-06-08,0,2018-06-08T03:54:00Z,210,12.051808,59
2018-06-08,1,2018-06-08T04:54:00Z,210,7.969744,58
2018-06-08,2,2018-06-08T06:00:00Z,220,6.997824,58
2018-06-08,3,2018-06-08T06:54:00Z,210,7.969744,56
2018-06-08,4,2018-06-08T07:54:00Z,220,7.969744,56
2018-06-08,5,2018-06-08T09:00:00Z,210,7.969744,55
2018-06-08,6,2018-06-08T09:54:00Z,220,11.079888,55
2018-06-08,7,2018-06-08T10:54:00Z,230,6.997824,58
2018-06-08,8,2018-06-08T12:00:00Z,250,6.025904,62
2018-06-08,9,2018-06-08T12:54:00Z,270,4.082064,67
2018-06-08,10,2018-06-08T13:54:00Z,180,6.997824,69
2018-06-08,11,2018-06-08T15:00:00Z,250,4.082064,75
2018-06-08,12,2018-06-08T15:54:00Z,250,6.997824,77
2018-06-08,14,2018-06-08T18:00:00Z,280,5.053984,80
2018-06-08,15,2018-06-08T18:54:00Z,110,11.079888,72
2018-06-08,16,2018-06-08T19:54:00Z,80,6.997824,69
2018-06-08,17,2018-06-08T21:00:00Z,60,7.969744,71
2018-06-08,18,2018-06-08T21:54:00Z,80,6.025904,70
2018-06-08,19,2018-06-08T22:54:00Z,120,5.053984,70
2018-06-08,20,2018-06-09T00:00:00Z,160,6.025904,71
2018-06-08,21,2018-06-09T00:54:00Z,220,2.9157599999999997,71
2018-06-08,23,2018-06-09T03:00:00Z,10,2.9157599999999997,71
2018-06-09,0,2018-06-09T03:54:00Z,10,2.9157599999999997,70
2018-06-09,1,2018-06-09T04:54:00Z,20,2.9157599999999997,65
2018-06-09,2,2018-06-09T06:00:00Z,360,4.082064,65
2018-06-09,3,2018-06-09T06:54:00Z,340,6.025904,66
2018-06-09,4,2018-06-09T07:54:00Z,350,4.082064,64
2018-06-09,5,2018-06-09T09:00:00Z,350,6.025904,63
2018-06-09,6,2018-06-09T09:54:00Z,340,6.025904,63
2018-06-09,7,2018-06-09T10:54:00Z,340,6.025904,67
2018-06-09,8,2018-06-09T12:00:00Z,350,6.025904,70
2018-06-09,9,2018-06-09T12:54:00Z,340,6.997824,73
2018-06-09,10,2018-06-09T13:54:00Z,360,6.997824,75
2018-06-09,11,2018-06-09T15:00:00Z,350,6.025904,76
2018-06-09,12,2018-06-09T15:54:00Z,290,4.082064,77
2018-06-09,13,2018-06-09T16:54:00Z,340,6.997824,78
2018-06-09,14,2018-06-09T18:00:00Z,280,6.997824,79
2018-06-09,15,2018-06-09T18:54:00Z,270,8.941664,79
2018-06-09,16,2018-06-09T19:54:00Z,280,13.023728,80
2018-06-09,17,2018-06-09T21:00:00Z,250,9.913584,80
2018-06-09,18,2018-06-09T21:54:00Z,260,9.913584,79
2018-06-09,19,2018-06-09T22:54:00Z,280,7.969744,78
2018-06-09,20,2018-06-10T00:00:00Z,290,7.969744,77
2018-06-09,21,2018-06-10T00:54:00Z,270,4.082064,76
2018-06-09,22,2018-06-10T01:54:00Z,200,6.025904,71
2018-06-09,23,2018-06-10T03:00:00Z,240,6.025904,71
2018-06-10,0,2018-06-10T03:54:00Z,360,6.025904,70
2018-06-10,1,2018-06-10T04:54:00Z,20,6.997824,67
2018-06-10,2,2018-06-10T06:00:00Z,350,6.025904,67
2018-06-10,3,2018-06-10T06:54:00Z,340,6.025904,65
2018-06-10,4,2018-06-10T07:54:00Z,320,6.025904,64
2018-06-10,5,2018-06-10T09:00:00Z,310,7.969744,63
2018-06-10,6,2018-06-10T09:54:00Z,320,9.913584,63
2018-06-10,7,2018-06-10T10:54:00Z,330,7.969744,64
2018-06-10,8,2018-06-10T12:00:00Z,350,6.025904,67
2018-06-10,9,2018-06-10T12:54:00Z,350,6.025904,69
2018-06-10,10,2018-06-10T13:54:00Z,50,6.997824,71
2018-06-10,11,2018-06-10T15:00:00Z,80,12.051808,68
2018-06-10,12,2018-06-10T15:54:00Z,90,13.023728,67
2018-06-10,13,2018-06-10T16:54:00Z,100,8.941664,65
2018-06-10,14,2018-06-10T18:00:00Z,110,9.913584,66
2018-06-10,15,2018-06-10T18:54:00Z,100,12.051808,66
2018-06-10,16,2018-06-10T19:54:00Z,100,14.967568,67
2018-06-10,17,2018-06-10T21:00:00Z,120,9.913584,65
2018-06-10,18,2018-06-10T21:54:00Z,130,8.941664,67
2018-06-10,19,2018-06-10T22:54:00Z,140,8.941664,67
2018-06-10,20,2018-06-11T00:00:00Z,200,9.913584,66
2018-06-10,21,2018-06-11T00:54:00Z,190,8.941664,65
2018-06-10,22,2018-06-11T01:54:00Z,190,6.997824,64
2018-06-10,23,2018-06-11T03:00:00Z,210,6.025904,62
2018-06-11,0,2018-06-11T03:54:00Z,210,7.969744,61
2018-06-11,1,2018-06-11T04:54:00Z,200,6.025904,60
2018-06-11,2,2018-06-11T06:00:00Z,190,2.9157599999999997,59
2018-06-11,3,2018-06-11T06:54:00Z,180,2.9157599999999997,59
2018-06-11,4,2018-06-11T07:54:00Z,160,2.9157599999999997,59
2018-06-11,5,2018-06-11T09:00:00Z,120,6.025904,58
2018-06-11,6,2018-06-11T09:54:00Z,120,6.997824,58
2018-06-11,7,2018-06-11T10:54:00Z,100,12.051808,60
2018-06-11,8,2018-06-11T12:00:00Z,100,6.025904,60
2018-06-11,9,2018-06-11T12:54:00Z,110,9.913584,61
2018-06-11,10,2018-06-11T13:54:00Z,100,11.079888,62
2018-06-11,11,2018-06-11T15:00:00Z,100,9.913584,61
2018-06-11,12,2018-06-11T15:54:00Z,100,8.941664,62
2018-06-11,13,2018-06-11T16:54:00Z,70,9.913584,63
2018-06-11,14,2018-06-11T18:00:00Z,70,12.051808,63
2018-06-11,15,2018-06-11T18:54:00Z,70,12.051808,64
2018-06-11,16,2018-06-11T19:54:00Z,90,13.023728,63
2018-06-11,17,2018-06-11T21:00:00Z,110,13.023728,63
2018-06-11,18,2018-06-11T21:54:00Z,100,13.023728,62
2018-06-11,19,2018-06-11T22:54:00Z,120,12.051808,61
2018-06-11,20,2018-06-12T00:00:00Z,140,8.941664,61
2018-06-11,21,2018-06-12T00:54:00Z,170,7.969744,59
2018-06-11,22,2018-06-12T01:54:00Z,200,8.941664,59
2018-06-11,23,2018-06-12T03:00:00Z,210,11.079888,58
2018-06-12,0,2018-06-12T03:54:00Z,210,12.051808,57
2018-06-12,1,2018-06-12T04:54:00Z,220,7.969744,56
2018-06-12,2,2018-06-12T06:00:00Z,220,9.913584,55
2018-06-12,3,2018-06-12T06:54:00Z,240,12.051808,55
2018-06-12,4,2018-06-12T07:54:00Z,240,13.023728,56
2018-06-12,5,2018-06-12T09:00:00Z,230,11.079888,55
2018-06-12,6,2018-06-12T09:54:00Z,220,8.941664,54
2018-06-12,7,2018-06-12T10:54:00Z,230,8.941664,57
2018-06-12,8,2018-06-12T12:00:00Z,230,12.051808,62
2018-06-12,9,2018-06-12T12:54:00Z,240,13.023728,65
2018-06-12,10,2018-06-12T13:54:00Z,240,13.023728,70
2018-06-12,11,2018-06-12T15:00:00Z,240,14.967568,72
2018-06-12,12,2018-06-12T15:54:00Z,240,14.967568,76
2018-06-12,13,2018-06-12T16:54:00Z,240,13.995648,77
2018-06-12,14,2018-06-12T18:00:00Z,230,17.105792,79
2018-06-12,15,2018-06-12T18:54:00Z,230,18.077712,80
2018-06-12,16,2018-06-12T19:54:00Z,230,20.993472,79
2018-06-12,17,2018-06-12T21:00:00Z,220,26.047456,77
2018-06-12,18,2018-06-12T21:54:00Z,220,22.937312,76
2018-06-12,19,2018-06-12T22:54:00Z,220,20.021552,73
2018-06-12,20,2018-06-13T00:00:00Z,210,18.077712,71
2018-06-12,21,2018-06-13T00:54:00Z,210,14.967568,67
2018-06-12,22,2018-06-13T01:54:00Z,210,20.021552,65
2018-06-12,23,2018-06-13T03:00:00Z,220,17.105792,63
2018-06-13,0,2018-06-13T03:54:00Z,220,17.105792,62
2018-06-13,1,2018-06-13T04:54:00Z,230,14.967568,61
2018-06-13,2,2018-06-13T06:00:00Z,230,14.967568,60
2018-06-13,3,2018-06-13T06:54:00Z,230,13.023728,59
2018-06-13,4,2018-06-13T07:54:00Z,230,13.995648,60
2018-06-13,5,2018-06-13T09:00:00Z,230,13.995648,60
2018-06-13,6,2018-06-13T09:54:00Z,230,13.023728,60
2018-06-13,7,2018-06-13T10:54:00Z,240,15.939488,63
2018-06-13,8,2018-06-13T12:00:00Z,230,13.023728,67
2018-06-13,9,2018-06-13T12:54:00Z,240,13.023728,72
2018-06-13,10,2018-06-13T13:54:00Z,230,13.995648,75
2018-06-13,11,2018-06-13T15:22:00Z,220,21.965392,74
2018-06-13,12,2018-06-13T15:54:00Z,230,22.937312,73
2018-06-13,13,2018-06-13T16:54:00Z,230,15.939488,75
2018-06-13,14,2018-06-13T18:00:00Z,220,15.939488,75
2018-06-13,15,2018-06-13T18:54:00Z,200,14.967568,73
2018-06-13,16,2018-06-13T20:09:00Z,210,11.079888,69
2018-06-13,17,2018-06-13T21:00:00Z,190,9.913584,70
2018-06-13,18,2018-06-13T21:54:00Z,230,12.051808,71
2018-06-13,19,2018-06-13T22:54:00Z,210,11.079888,72
2018-06-13,20,2018-06-14T00:00:00Z,220,9.913584,72
2018-06-13,21,2018-06-14T00:54:00Z,220,13.023728,72
2018-06-13,22,2018-06-14T01:54:00Z,220,13.023728,70
2018-06-13,23,2018-06-14T03:00:00Z,220,13.023728,70
2018-06-14,0,2018-06-14T03:54:00Z,210,11.079888,69
2018-06-14,1,2018-06-14T04:54:00Z,220,8.941664,70
2018-06-14,2,2018-06-14T06:25:00Z,230,6.997824,72
2018-06-14,3,2018-06-14T06:54:00Z,220,8.941664,70
2018-06-14,4,2018-06-14T07:54:00Z,260,11.079888,72
2018-06-14,5,2018-06-14T09:00:00Z,270,11.079888,71
2018-06-14,6,2018-06-14T09:54:00Z,270,13.023728,70
2018-06-14,7,2018-06-14T10:54:00Z,250,13.995648,70
2018-06-14,8,2018-06-14T12:00:00Z,280,13.995648,71
2018-06-14,9,2018-06-14T12:54:00Z,250,14.967568,73
2018-06-14,10,2018-06-14T13:54:00Z,270,15.939488,75
2018-06-14,11,2018-06-14T15:00:00Z,270,17.105792,77
2018-06-14,12,2018-06-14T15:54:00Z,280,17.105792,77
2018-06-14,13,2018-06-14T16:54:00Z,270,13.023728,77
2018-06-14,14,2018-06-14T18:00:00Z,290,13.023728,76
2018-06-14,15,2018-06-14T18:54:00Z,290,17.105792,79
2018-06-14,16,2018-06-14T19:54:00Z,290,15.939488,76
2018-06-14,17,2018-06-14T21:00:00Z,320,13.023728,73
2018-06-14,18,2018-06-14T21:54:00Z,300,15.939488,72
2018-06-14,19,2018-06-14T22:54:00Z,300,13.023728,71
2018-06-14,20,2018-06-15T00:00:00Z,280,12.051808,70
2018-06-14,21,2018-06-15T00:54:00Z,290,11.079888,68
2018-06-14,22,2018-06-15T01:54:00Z,280,8.941664,67
2018-06-14,23,2018-06-15T03:00:00Z,290,9.913584,67
2018-06-15,0,2018-06-15T03:54:00Z,70,6.997824,63
2018-06-15,1,2018-06-15T05:27:00Z,70,9.913584,57
2018-06-15,2,2018-06-15T06:00:00Z,50,9.913584,57
2018-06-15,3,2018-06-15T06:54:00Z,50,7.969744,56
2018-06-15,4,2018-06-15T07:54:00Z,40,5.053984,57
2018-06-15,5,2018-06-15T09:00:00Z,40,7.969744,55
2018-06-15,6,2018-06-15T09:54:00Z,50,8.941664,55
2018-06-15,7,2018-06-15T11:13:00Z,60,7.969744,55
2018-06-15,8,2018-06-15T12:00:00Z,60,6.025904,55
2018-06-15,9,2018-06-15T12:54:00Z,70,6.997824,56
2018-06-15,10,2018-06-15T13:54:00Z,70,6.025904,56
2018-06-15,11,2018-06-15T15:00:00Z,60,5.053984,56
2018-06-15,12,2018-06-15T15:54:00Z,90,7.969744,58
2018-06-15,13,2018-06-15T16:54:00Z,90,7.969744,57
2018-06-15,14,2018-06-15T18:00:00Z,80,6.997824,56
2018-06-15,16,2018-06-15T19:54:00Z,110,7.969744,60
2018-06-15,17,2018-06-15T21:00:00Z,140,6.997824,60
2018-06-15,18,2018-06-15T21:54:00Z,120,6.025904,63
2018-06-15,19,2018-06-15T22:54:00Z,140,6.025904,62
2018-06-15,20,2018-06-16T00:00:00Z,150,6.025904,61
2018-06-15,21,2018-06-16T00:54:00Z,180,4.082064,61
2018-06-15,22,2018-06-16T01:54:00Z,210,5.053984,63
2018-06-15,23,2018-06-16T03:00:00Z,220,6.997824,62
2018-06-16,0,2018-06-16T03:54:00Z,210,8.941664,62
2018-06-16,1,2018-06-16T04:54:00Z,230,8.941664,61
2018-06-16,2,2018-06-16T06:00:00Z,260,6.997824,62
2018-06-16,3,2018-06-16T06:54:00Z,250,5.053984,60
2018-06-16,4,2018-06-16T07:54:00Z,220,4.082064,58
2018-06-16,5,2018-06-16T09:00:00Z,270,8.941664,60
2018-06-16,6,2018-06-16T09:54:00Z,280,7.969744,61
2018-06-16,7,2018-06-16T10:54:00Z,290,8.941664,63
2018-06-16,8,2018-06-16T12:00:00Z,280,8.941664,67
2018-06-16,9,2018-06-16T12:54:00Z,310,7.969744,72
2018-06-16,10,2018-06-16T13:54:00Z,310,8.941664,75
2018-06-16,11,2018-06-16T15:00:00Z,320,13.023728,77
2018-06-16,12,2018-06-16T15:54:00Z,310,11.079888,79
2018-06-16,13,2018-06-16T16:54:00Z,330,11.079888,82
2018-06-16,14,2018-06-16T18:00:00Z,300,8.941664,84
2018-06-16,15,2018-06-16T18:54:00Z,290,11.079888,84
2018-06-16,16,2018-06-16T19:54:00Z,340,7.969744,83
2018-06-16,17,2018-06-16T21:00:00Z,320,7.969744,82
2018-06-16,18,2018-06-16T21:54:00Z,320,5.053984,83
2018-06-16,19,2018-06-16T22:54:00Z,150,7.969744,76
2018-06-16,20,2018-06-17T00:00:00Z,130,5.053984,69
2018-06-16,22,2018-06-17T01:54:00Z,150,4.082064,67
2018-06-17,2,2018-06-17T06:00:00Z,180,5.053984,62
2018-06-17,4,2018-06-17T07:54:00Z,290,5.053984,66
2018-06-17,6,2018-06-17T09:54:00Z,30,4.082064,63
2018-06-17,7,2018-06-17T10:54:00Z,290,6.025904,69
2018-06-17,9,2018-06-17T12:54:00Z,320,2.9157599999999997,76
2018-06-17,10,2018-06-17T13:54:00Z,260,5.053984,80
2018-06-17,11,2018-06-17T15:00:00Z,120,7.969744,77
2018-06-17,12,2018-06-17T15:54:00Z,100,12.051808,78
2018-06-17,13,2018-06-17T16:54:00Z,80,11.079888,76
2018-06-17,14,2018-06-17T17:54:00Z,90,13.023728,74
2018-06-17,15,2018-06-17T18:54:00Z,70,8.941664,69
2018-06-17,16,2018-06-17T19:54:00Z,70,8.941664,68
2018-06-17,17,2018-06-17T21:00:00Z,80,8.941664,68
2018-06-17,18,2018-06-17T21:54:00Z,70,11.079888,67
2018-06-17,19,2018-06-17T22:54:00Z,80,7.969744,65
2018-06-17,20,2018-06-18T00:00:00Z,80,5.053984,64
2018-06-17,22,2018-06-18T01:54:00Z,170,4.082064,66
2018-06-17,23,2018-06-18T03:00:00Z,190,7.969744,69
2018-06-18,0,2018-06-18T03:54:00Z,190,7.969744,69
2018-06-18,1,2018-06-18T04:54:00Z,210,9.913584,69
2018-06-18,2,2018-06-18T06:00:00Z,220,11.079888,68
2018-06-18,3,2018-06-18T06:54:00Z,210,8.941664,67
2018-06-18,4,2018-06-18T07:54:00Z,220,8.941664,67
2018-06-18,5,2018-06-18T09:00:00Z,220,11.079888,67
2018-06-18,6,2018-06-18T09:54:00Z,230,13.023728,68
2018-06-18,7,2018-06-18T10:54:00Z,220,14.967568,69
2018-06-18,8,2018-06-18T12:00:00Z,220,13.995648,72
2018-06-18,9,2018-06-18T12:54:00Z,230,13.023728,77
2018-06-18,10,2018-06-18T13:54:00Z,220,13.023728,82
2018-06-18,11,2018-06-18T15:00:00Z,220,13.995648,83
2018-06-18,12,2018-06-18T15:54:00Z,220,20.021552,85
2018-06-18,13,2018-06-18T16:54:00Z,220,18.077712,85
2018-06-18,14,2018-06-18T18:00:00Z,210,14.967568,85
2018-06-18,15,2018-06-18T18:54:00Z,190,13.023728,85
2018-06-18,16,2018-06-18T19:54:00Z,200,18.077712,85
2018-06-18,17,2018-06-18T21:00:00Z,220,20.021552,88
2018-06-18,18,2018-06-18T21:54:00Z,210,14.967568,85
2018-06-18,19,2018-06-18T23:18:00Z,270,19.049632,81
2018-06-18,20,2018-06-19T00:00:00Z,220,6.997824,76
2018-06-18,21,2018-06-19T00:54:00Z,220,13.995648,75
2018-06-18,22,2018-06-19T01:54:00Z,210,13.995648,73
2018-06-18,23,2018-06-19T03:00:00Z,230,15.939488,72
2018-06-19,0,2018-06-19T03:54:00Z,230,15.939488,72
2018-06-19,1,2018-06-19T04:54:00Z,230,13.995648,73
2018-06-19,2,2018-06-19T06:00:00Z,240,13.995648,75
2018-06-19,3,2018-06-19T06:54:00Z,230,9.913584,74
2018-06-19,4,2018-06-19T07:54:00Z,240,13.995648,74
2018-06-19,5,2018-06-19T09:00:00Z,270,11.079888,75
2018-06-19,6,2018-06-19T09:54:00Z,310,8.941664,75
2018-06-19,7,2018-06-19T10:54:00Z,330,13.023728,74
2018-06-19,8,2018-06-19T12:00:00Z,340,18.077712,76
2018-06-19,9,2018-06-19T12:54:00Z,320,11.079888,76
2018-06-19,10,2018-06-19T13:54:00Z,330,11.079888,78
2018-06-19,11,2018-06-19T15:00:00Z,310,11.079888,79
2018-06-19,12,2018-06-19T15:54:00Z,310,13.023728,81
2018-06-19,13,2018-06-19T16:54:00Z,330,13.023728,82
2018-06-19,14,2018-06-19T18:00:00Z,320,14.967568,81
2018-06-19,15,2018-06-19T18:54:00Z,320,6.997824,82
2018-06-19,16,2018-06-19T19:54:00Z,310,14.967568,83
2018-06-19,17,2018-06-19T21:00:00Z,340,8.941664,82
2018-06-19,18,2018-06-19T21:54:00Z,330,12.051808,81
2018-06-19,19,2018-06-19T22:54:00Z,330,12.051808,80
2018-06-19,20,2018-06-20T00:00:00Z,10,7.969744,78
2018-06-19,21,2018-06-20T00:54:00Z,340,7.969744,76
2018-06-19,22,2018-06-20T01:54:00Z,340,6.997824,75
2018-06-19,23,2018-06-20T03:00:00Z,350,8.941664,72
2018-06-20,0,2018-06-20T03:54:00Z,350,8.941664,70
2018-06-20,1,2018-06-20T04:54:00Z,330,6.025904,69
2018-06-20,2,2018-06-20T06:00:00Z,320,6.025904,67
2018-06-20,3,2018-06-20T06:54:00Z,330,5.053984,66
2018-06-20,4,2018-06-20T07:54:00Z,290,5.053984,64
2018-06-20,5,2018-06-20T09:00:00Z,320,6.025904,63
2018-06-20,6,2018-06-20T09:54:00Z,270,5.053984,64
2018-06-20,7,2018-06-20T10:54:00Z,320,2.9157599999999997,67
2018-06-20,8,2018-06-20T12:00:00Z,310,4.082064,70
2018-06-20,10,2018-06-20T13:54:00Z,130,5.053984,71
2018-06-20,11,2018-06-20T15:00:00Z,130,4.082064,73
2018-06-20,12,2018-06-20T15:54:00Z,130,6.025904,74
2018-06-20,13,2018-06-20T16:54:00Z,130,6.997824,78
2018-06-20,14,2018-06-20T18:00:00Z,270,11.079888,83
2018-06-20,15,2018-06-20T18:54:00Z,240,11.079888,83
2018-06-20,16,2018-06-20T19:54:00Z,260,13.023728,81
2018-06-20,17,2018-06-20T21:00:00Z,270,12.051808,81
2018-06-20,18,2018-06-20T21:54:00Z,270,13.023728,80
2018-06-20,19,2018-06-20T22:54:00Z,260,8.941664,80
2018-06-20,20,2018-06-21T00:00:00Z,270,6.997824,79
2018-06-20,21,2018-06-21T00:54:00Z,270,6.997824,78
2018-06-20,22,2018-06-21T01:54:00Z,240,6.997824,77
2018-06-20,23,2018-06-21T03:00:00Z,230,6.997824,75
2018-06-21,0,2018-06-21T03:54:00Z,220,6.025904,72
2018-06-21,1,2018-06-21T04:54:00Z,220,6.025904,70
2018-06-21,2,2018-06-21T06:00:00Z,220,6.997824,69
2018-06-21,3,2018-06-21T06:54:00Z,240,4.082064,69
2018-06-21,4,2018-06-21T07:54:00Z,220,5.053984,67
2018-06-21,5,2018-06-21T09:00:00Z,220,2.9157599999999997,68
2018-06-21,6,2018-06-21T09:54:00Z,290,5.053984,70
2018-06-21,7,2018-06-21T10:54:00Z,280,6.025904,72
2018-06-21,8,2018-06-21T12:00:00Z,290,4.082064,74
2018-06-21,9,2018-06-21T12:54:00Z,290,6.025904,74
2018-06-21,10,2018-06-21T13:54:00Z,30,6.997824,80
2018-06-21,11,2018-06-21T15:00:00Z,130,6.997824,78
2018-06-21,12,2018-06-21T15:54:00Z,110,11.079888,79
2018-06-21,13,2018-06-21T16:54:00Z,80,11.079888,78
2018-06-21,14,2018-06-21T18:00:00Z,70,12.051808,75
2018-06-21,15,2018-06-21T18:54:00Z,70,13.023728,73
2018-06-21,16,2018-06-21T19:54:00Z,80,12.051808,72
2018-06-21,17,2018-06-21T21:00:00Z,70,8.941664,70
2018-06-21,18,2018-06-21T21:54:00Z,70,8.941664,68
2018-06-21,19,2018-06-21T22:54:00Z,120,6.997824,67
2018-06-21,20,2018-06-22T00:00:00Z,110,4.082064,67
2018-06-21,22,2018-06-22T01:54:00Z,40,4.082064,66
2018-06-21,23,2018-06-22T03:00:00Z,10,4.082064,66
2018-06-22,0,2018-06-22T03:54:00Z,10,4.082064,65
2018-06-22,1,2018-06-22T04:54:00Z,360,5.053984,66
2018-06-22,2,2018-06-22T06:00:00Z,10,6.025904,63
2018-06-22,3,2018-06-22T06:54:00Z,10,6.997824,63
2018-06-22,4,2018-06-22T07:54:00Z,20,12.051808,61
2018-06-22,5,2018-06-22T09:00:00Z,20,8.941664,61
2018-06-22,6,2018-06-22T09:54:00Z,10,5.053984,62
2018-06-22,7,2018-06-22T10:54:00Z,20,8.941664,63
2018-06-22,8,2018-06-22T12:00:00Z,20,6.997824,65
2018-06-22,9,2018-06-22T12:54:00Z,70,8.941664,67
2018-06-22,10,2018-06-22T13:54:00Z,70,7.969744,68
2018-06-22,11,2018-06-22T15:00:00Z,70,9.913584,68
2018-06-22,12,2018-06-22T15:54:00Z,70,11.079888,70
2018-06-22,13,2018-06-22T16:54:00Z,70,12.051808,68
2018-06-22,14,2018-06-22T17:54:00Z,70,13.023728,68
2018-06-22,15,2018-06-22T18:54:00Z,80,13.023728,69
2018-06-22,16,2018-06-22T19:54:00Z,80,13.023728,69
2018-06-22,17,2018-06-22T21:00:00Z,100,13.023728,70
2018-06-22,18,2018-06-22T21:54:00Z,120,9.913584,69
2018-06-22,19,2018-06-22T22:54:00Z,140,7.969744,69
2018-06-22,20,2018-06-23T00:00:00Z,160,12.051808,69
2018-06-22,21,2018-06-23T00:54:00Z,180,9.913584,67
2018-06-22,22,2018-06-23T01:54:00Z,190,6.997824,65
2018-06-22,23,2018-06-23T03:00:00Z,140,4.082064,62
2018-06-23,0,2018-06-23T03:54:00Z,160,2.9157599999999997,62
2018-06-23,1,2018-06-23T04:54:00Z,100,2.9157599999999997,61
2018-06-23,2,2018-06-23T06:00:00Z,90,4.082064,62
2018-06-23,3,2018-06-23T06:54:00Z,80,4.082064,61
2018-06-23,4,2018-06-23T07:54:00Z,70,2.9157599999999997,61
2018-06-23,5,2018-06-23T09:00:00Z,50,5.053984,62
2018-06-23,6,2018-06-23T09:54:00Z,60,6.997824,63
2018-06-23,7,2018-06-23T10:54:00Z,60,6.025904,63
2018-06-23,8,2018-06-23T12:00:00Z,70,9.913584,63
2018-06-23,9,2018-06-23T12:54:00Z,60,6.997824,64
2018-06-23,10,2018-06-23T13:54:00Z,90,12.051808,64
2018-06-23,11,2018-06-23T15:00:00Z,90,12.051808,63
2018-06-23,12,2018-06-23T15:54:00Z,70,12.051808,63
2018-06-23,13,2018-06-23T16:54:00Z,70,7.969744,64
2018-06-23,14,2018-06-23T18:00:00Z,70,9.913584,63
2018-06-23,15,2018-06-23T19:14:00Z,60,8.941664,60
2018-06-23,16,2018-06-23T19:54:00Z,60,11.079888,63
2018-06-23,17,2018-06-23T21:27:00Z,50,8.941664,62
2018-06-23,18,2018-06-23T22:21:00Z,40,8.941664,61
2018-06-23,19,2018-06-23T23:06:00Z,30,8.941664,60
2018-06-23,20,2018-06-24T00:26:00Z,30,6.997824,60
2018-06-23,21,2018-06-24T00:54:00Z,10,7.969744,60
2018-06-23,22,2018-06-24T01:54:00Z,20,5.053984,60
2018-06-23,23,2018-06-24T03:00:00Z,10,6.997824,60
2018-06-24,0,2018-06-24T03:54:00Z,360,6.025904,60
2018-06-24,1,2018-06-24T04:54:00Z,350,6.025904,60
2018-06-24,2,2018-06-24T06:00:00Z,360,5.053984,60
2018-06-24,3,2018-06-24T06:54:00Z,10,4.082064,59
2018-06-24,4,2018-06-24T07:54:00Z,310,4.082064,60
2018-06-24,7,2018-06-24T10:54:00Z,180,6.025904,61
2018-06-24,8,2018-06-24T12:02:00Z,200,6.997824,62
2018-06-24,9,2018-06-24T12:54:00Z,230,7.969744,65
2018-06-24,10,2018-06-24T13:54:00Z,250,6.025904,68
2018-06-24,12,2018-06-24T15:54:00Z,310,4.082064,74
2018-06-24,13,2018-06-24T17:08:00Z,70,6.997824,77
2018-06-24,14,2018-06-24T18:00:00Z,110,9.913584,72
2018-06-24,15,2018-06-24T18:54:00Z,100,11.079888,75
2018-06-24,16,2018-06-24T19:54:00Z,80,9.913584,70
2018-06-24,17,2018-06-24T21:00:00Z,100,8.941664,72
2018-06-24,18,2018-06-24T21:54:00Z,60,4.082064,72
2018-06-24,19,2018-06-24T22:54:00Z,90,5.053984,70
2018-06-24,20,2018-06-25T00:16:00Z,290,5.053984,73
2018-06-24,21,2018-06-25T01:19:00Z,190,5.053984,70
2018-06-24,22,2018-06-25T02:28:00Z,160,4.082064,71
2018-06-24,23,2018-06-25T03:05:00Z,60,4.082064,71
2018-06-25,0,2018-06-25T04:25:00Z,100,2.9157599999999997,68
2018-06-25,1,2018-06-25T04:54:00Z,120,2.9157599999999997,68
2018-06-25,2,2018-06-25T06:21:00Z,360,6.025904,68
2018-06-25,3,2018-06-25T06:54:00Z,340,7.969744,67
2018-06-25,4,2018-06-25T08:03:00Z,340,8.941664,67
2018-06-25,5,2018-06-25T09:00:00Z,340,9.913584,67
2018-06-25,6,2018-06-25T09:54:00Z,340,6.997824,67
2018-06-25,7,2018-06-25T10:54:00Z,320,6.997824,68
2018-06-25,8,2018-06-25T12:00:00Z,330,9.913584,71
2018-06-25,9,2018-06-25T12:54:00Z,330,12.051808,71
2018-06-25,10,2018-06-25T13:54:00Z,330,9.913584,71
2018-06-25,11,2018-06-25T15:00:00Z,320,14.967568,73
2018-06-25,12,2018-06-25T15:54:00Z,20,13.995648,64
2018-06-25,13,2018-06-25T16:54:00Z,40,12.051808,64
2018-06-25,14,2018-06-25T18:00:00Z,80,12.051808,68
2018-06-25,15,2018-06-25T18:54:00Z,100,11.079888,66
2018-06-25,16,2018-06-25T19:54:00Z,80,12.051808,66
2018-06-25,17,2018-06-25T21:00:00Z,110,9.913584,65
2018-06-25,18,2018-06-25T21:54:00Z,90,7.969744,65
2018-06-25,19,2018-06-25T22:54:00Z,100,7.969744,64
2018-06-25,20,2018-06-26T00:00:00Z,90,4.082064,63
2018-06-26,1,2018-06-26T04:54:00Z,250,2.9157599999999997,61
2018-06-26,2,2018-06-26T06:00:00Z,310,4.082064,62
2018-06-26,3,2018-06-26T06:54:00Z,270,6.025904,62
2018-06-26,4,2018-06-26T07:54:00Z,270,9.913584,61
2018-06-26,5,2018-06-26T09:00:00Z,270,11.079888,61
2018-06-26,6,2018-06-26T09:54:00Z,280,9.913584,61
2018-06-26,7,2018-06-26T10:54:00Z,280,7.969744,63
2018-06-26,8,2018-06-26T12:00:00Z,320,11.079888,67
2018-06-26,9,2018-06-26T12:54:00Z,350,7.969744,69
2018-06-26,10,2018-06-26T13:54:00Z,150,6.025904,70
2018-06-26,11,2018-06-26T15:00:00Z,130,6.997824,70
2018-06-26,12,2018-06-26T15:54:00Z,130,9.913584,71
2018-06-26,13,2018-06-26T16:54:00Z,120,11.079888,72
2018-06-26,14,2018-06-26T18:00:00Z,120,11.079888,72
2018-06-26,15,2018-06-26T18:54:00Z,100,13.023728,73
2018-06-26,16,2018-06-26T19:54:00Z,110,11.079888,75
2018-06-26,17,2018-06-26T21:00:00Z,120,12.051808,75
2018-06-26,18,2018-06-26T21:54:00Z,110,8.941664,73
2018-06-26,19,2018-06-26T22:54:00Z,200,15.939488,76
2018-06-26,20,2018-06-27T00:00:00Z,210,11.079888,73
2018-06-26,21,2018-06-27T00:54:00Z,220,12.051808,73
2018-06-26,22,2018-06-27T01:54:00Z,220,13.995648,70
2018-06-26,23,2018-06-27T03:00:00Z,230,14.967568,69
2018-06-27,0,2018-06-27T03:54:00Z,230,13.995648,68
2018-06-27,1,2018-06-27T04:54:00Z,220,13.995648,66
2018-06-27,2,2018-06-27T06:00:00Z,230,13.995648,65
2018-06-27,3,2018-06-27T06:54:00Z,230,12.051808,64
2018-06-27,4,2018-06-27T07:54:00Z,230,11.079888,64
2018-06-27,5,2018-06-27T09:00:00Z,220,8.941664,64
2018-06-27,6,2018-06-27T09:54:00Z,230,8.941664,64
2018-06-27,7,2018-06-27T10:54:00Z,230,7.969744,65
2018-06-27,8,2018-06-27T12:00:00Z,240,14.967568,68
2018-06-27,9,2018-06-27T12:54:00Z,250,13.023728,71
2018-06-27,10,2018-06-27T13:54:00Z,240,12.051808,75
2018-06-27,11,2018-06-27T15:00:00Z,240,12.051808,75
2018-06-27,12,2018-06-27T15:54:00Z,240,11.079888,76
2018-06-27,13,2018-06-27T16:54:00Z,220,9.913584,77
2018-06-27,14,2018-06-27T18:00:00Z,220,11.079888,79
2018-06-27,15,2018-06-27T18:54:00Z,200,12.051808,77
2018-06-27,16,2018-06-27T19:54:00Z,190,15.939488,76
2018-06-27,17,2018-06-27T21:00:00Z,200,13.995648,75
2018-06-27,18,2018-06-27T21:54:00Z,200,13.995648,73
2018-06-27,19,2018-06-27T22:54:00Z,190,11.079888,73
2018-06-27,20,2018-06-28T00:00:00Z,190,12.051808,72
2018-06-27,21,2018-06-28T00:54:00Z,200,12.051808,71
2018-06-27,22,2018-06-28T01:54:00Z,190,8.941664,70
2018-06-27,23,2018-06-28T03:00:00Z,190,6.997824,68
2018-06-28,0,2018-06-28T03:54:00Z,180,4.082064,66
2018-06-28,1,2018-06-28T04:54:00Z,120,6.025904,65
2018-06-28,2,2018-06-28T06:00:00Z,140,6.997824,66
2018-06-28,3,2018-06-28T06:54:00Z,160,7.969744,67
2018-06-28,4,2018-06-28T07:54:00Z,150,4.082064,67
2018-06-28,5,2018-06-28T09:03:00Z,180,4.082064,69
2018-06-28,6,2018-06-28T09:54:00Z,180,9.913584,70
2018-06-28,7,2018-06-28T10:54:00Z,170,8.941664,71
2018-06-28,8,2018-06-28T12:24:00Z,180,7.969744,71
2018-06-28,9,2018-06-28T12:54:00Z,160,8.941664,71
2018-06-28,10,2018-06-28T14:21:00Z,230,6.025904,71
2018-06-28,11,2018-06-28T15:00:00Z,140,6.025904,70
2018-06-28,12,2018-06-28T16:28:00Z,180,5.053984,72
2018-06-28,13,2018-06-28T16:54:00Z,190,8.941664,73
2018-06-28,14,2018-06-28T18:05:00Z,170,6.025904,73
2018-06-28,15,2018-06-28T18:54:00Z,180,6.025904,72
2018-06-28,16,2018-06-28T19:54:00Z,180,6.025904,74
2018-06-28,17,2018-06-28T21:00:00Z,200,8.941664,75
2018-06-28,18,2018-06-28T21:54:00Z,200,7.969744,75
2018-06-28,19,2018-06-28T22:54:00Z,200,11.079888,74
2018-06-28,20,2018-06-29T00:00:00Z,190,6.997824,73
2018-06-28,21,2018-06-29T00:54:00Z,240,5.053984,73
2018-06-28,22,2018-06-29T01:54:00Z,210,4.082064,73
2018-06-28,23,2018-06-29T03:00:00Z,220,6.997824,72
2018-06-29,0,2018-06-29T04:13:00Z,240,6.997824,73
2018-06-29,1,2018-06-29T04:54:00Z,280,6.025904,74
2018-06-29,2,2018-06-29T06:00:00Z,290,7.969744,74
2018-06-29,3,2018-06-29T06:54:00Z,280,6.025904,73
2018-06-29,4,2018-06-29T07:54:00Z,270,6.997824,72
2018-06-29,5,2018-06-29T09:00:00Z,290,7.969744,72
2018-06-29,6,2018-06-29T09:54:00Z,290,8.941664,72
2018-06-29,7,2018-06-29T10:54:00Z,290,8.941664,74
2018-06-29,8,2018-06-29T12:00:00Z,310,8.941664,77
2018-06-29,9,2018-06-29T12:54:00Z,300,6.025904,79
2018-06-29,11,2018-06-29T15:00:00Z,290,6.025904,84
2018-06-29,12,2018-06-29T15:54:00Z,290,7.969744,86
2018-06-29,13,2018-06-29T16:54:00Z,320,5.053984,86
2018-06-29,15,2018-06-29T18:54:00Z,130,7.969744,86
2018-06-29,16,2018-06-29T19:54:00Z,80,7.969744,82
2018-06-29,17,2018-06-29T21:00:00Z,50,6.997824,79
2018-06-29,18,2018-06-29T21:54:00Z,100,5.053984,82
2018-06-29,19,2018-06-29T22:54:00Z,270,9.913584,89
2018-06-29,20,2018-06-30T00:00:00Z,250,6.025904,88
2018-06-29,21,2018-06-30T00:54:00Z,230,5.053984,84
2018-06-29,23,2018-06-30T03:00:00Z,290,7.969744,83
2018-06-30,0,2018-06-30T03:54:00Z,300,7.969744,82
2018-06-30,1,2018-06-30T04:54:00Z,300,6.025904,81
2018-06-30,2,2018-06-30T06:00:00Z,300,6.997824,79
2018-06-30,3,2018-06-30T06:54:00Z,320,5.053984,78
2018-06-30,4,2018-06-30T07:54:00Z,310,5.053984,77
2018-06-30,5,2018-06-30T09:00:00Z,290,6.025904,76
2018-06-30,6,2018-06-30T09:54:00Z,320,6.997824,76
2018-06-30,7,2018-06-30T10:54:00Z,320,5.053984,77
2018-06-30,8,2018-06-30T12:00:00Z,330,5.053984,81
2018-06-30,10,2018-06-30T13:54:00Z,120,6.025904,84
2018-06-30,11,2018-06-30T15:00:00Z,130,8.941664,82
2018-06-30,13,2018-06-30T16:54:00Z,110,7.969744,85
2018-06-30,14,2018-06-30T18:00:00Z,120,11.079888,79
2018-06-30,15,2018-06-30T18:54:00Z,120,8.941664,79
2018-06-30,16,2018-06-30T19:54:00Z,140,7.969744,77
2018-06-30,17,2018-06-30T21:00:00Z,130,6.997824,83
2018-06-30,18,2018-06-30T21:54:00Z,150,6.997824,84
2018-06-30,19,2018-06-30T22:54:00Z,200,12.051808,87
2018-06-30,20,2018-07-01T00:00:00Z,210,7.969744,85
2018-06-30,21,2018-07-01T00:54:00Z,200,7.969744,82
2018-06-30,22,2018-07-01T01:54:00Z,210,5.053984,80
2018-06-30,23,2018-07-01T03:00:00Z,240,7.969744,83
2018-07-01,0,2018-07-01T03:54:00Z,210,6.025904,80
