flight,min_dist,altitude_at_min,min_lon,min_lat,time
JBU878,3998.456199770283,-75,-71.097,42.400523,2018-11-01 05:48:34 EDT
00000000,5134.88438298493,1575,-71.085103291755,42.421506868368965,2018-11-01 14:40:14 EDT
N474SS,5217.110261355236,1500,-71.084727,42.421555,2018-11-01 14:51:51 EDT
N710SB,4403.858975485336,375,-71.08225691709377,42.40964287172083,2018-11-04 15:57:53 EST
N145NE,634.6929458241497,875,-71.1007515372174,42.41158107903029,2018-11-04 16:01:40 EST
KAP417,5607.878081905264,1250,-71.084353,42.422775,2018-11-05 13:57:17 EST
KAP13,4211.8950828755915,1050,-71.087036,42.419357,2018-11-05 14:24:39 EST
N474SS,3014.4045392113053,1050,-71.08830731842356,42.414986792520956,2018-11-05 14:33:45 EST
KAP16,5533.463301866117,1400,-71.085503,42.423241,2018-11-05 15:30:10 EST
KAP617,5090.266995498957,1100,-71.085663,42.421738,2018-11-05 15:37:44 EST
KAP223,5181.578408642295,1325,-71.084851,42.421509,2018-11-05 15:58:29 EST
KAP444,5286.898816853918,1100,-71.085538,42.422379,2018-11-05 16:17:15 EST
N67TZ,5221.274772970784,1125,-71.085375,42.42203,2018-11-05 16:40:18 EST
KAP92,5224.288632748427,1100,-71.085538,42.42215,2018-11-05 16:47:33 EST
KAP55,5659.611201181475,1200,-71.084227,42.422882,2018-11-05 17:07:00 EST
KAP345,5305.398429181262,1075,-71.08512,42.42217,2018-11-05 17:20:05 EST
KAP24,5145.843011662219,1200,-71.085039,42.421509,2018-11-05 17:25:37 EST
JBU1886,5387.52554148776,-75,-71.08936286891421,42.42460013808002,2018-11-05 20:54:33 EST
RPA5874,4847.646659433542,50,-71.08999768469378,42.42317810000143,2018-11-06 08:03:10 EST
JBU816,5194.455442181403,525,-71.10949691153944,42.39981767470902,2018-11-06 10:18:47 EST
JBU570,1028.3162751262337,525,-71.10200694265588,42.41239168354781,2018-11-07 16:30:39 EST
N135ED,4527.924181592129,650,-71.11150814029249,42.403692441386426,2018-11-08 19:01:45 EST
N145NE,479.61822753978265,650,-71.09673779777383,42.411902596319884,2018-11-09 13:20:55 EST
KAP82,5846.503540894446,1300,-71.083268,42.422915,2018-11-09 19:17:37 EST
N474SS,5249.936678284373,1300,-71.085567,42.422263,2018-11-09 19:38:11 EST
KAP291,5063.1325638505705,1400,-71.085039,42.421188,2018-11-09 20:00:42 EST
N141NE,305.3406059003076,625,-71.09937993859803,42.411019754215346,2018-11-12 08:19:04 EST
JBU984,206.0739220218334,-175,-71.09919061175391,42.41149550279495,2018-11-12 17:26:39 EST
DAL1291,5229.636105473756,1125,-71.084737,42.421611,2018-11-13 01:51:44 EST
RPA5987,3304.019988522677,-100,-71.09331487255402,42.41967633579558,2018-11-14 07:24:26 EST
KAP21,6161.607580191682,1050,-71.082629,42.42366,2018-11-15 16:43:28 EST
KAP51,5015.541895327336,1225,-71.085413,42.42128,2018-11-15 16:48:12 EST
KAP92,5136.142426182448,1e3,-71.085413,42.421738,2018-11-15 16:54:22 EST
KAP55,1435.3853842988412,1250,-71.097523,42.415329,2018-11-15 16:59:35 EST
KAP284,5038.65227005473,1275,-71.085759,42.421611,2018-11-15 17:10:31 EST
N52SM,2305.31469591739,150,-71.10250425752731,42.40590596403137,2018-11-15 23:22:51 EST
JBU790,171.79750703814457,25,-71.09907956686256,42.41145359371889,2018-11-18 18:50:44 EST
KAP5150,5174.0202673267095,1625,-71.085567,42.421984,2018-11-19 16:40:37 EST
KAP291,5134.427693893473,1325,-71.085163,42.421555,2018-11-19 16:51:02 EST
KAP,5128.86687101067,1300,-71.084353,42.420913,2018-11-19 16:57:13 EST
KAP24,5385.985244606021,1450,-71.084851,42.422287,2018-11-19 17:02:09 EST
KAP345,5124.328148173024,1500,-71.086474,42.422379,2018-11-19 16:59:23 EST
KAP117,5001.524636164977,1600,-71.085759,42.421472,2018-11-19 17:14:32 EST
KAP100,5316.279567976883,1700,-71.084226,42.421565,2018-11-19 17:40:06 EST
KAP16,5071.0122967792595,1350,-71.085975,42.421875,2018-11-19 19:07:08 EST
N435DH,963.9338983094331,900,-71.1017116245282,42.410442143413526,2018-11-21 13:10:18 EST
N435DH,1760.259463073198,1125,-71.09257289191756,42.41361042335063,2018-11-22 16:34:49 EST
N200UP,1389.1859483188418,700,-71.10333063982151,42.41033044957742,2018-11-24 17:27:23 EST
ASQ4079,6687.008575271577,225,-71.11341982870739,42.39687470112933,2018-11-25 08:06:10 EST
KAP607,4940.12649924638,1825,-71.086287,42.4216,2018-11-26 13:10:49 EST
KAP95,4541.916646321364,1475,-71.086349,42.420135,2018-11-26 13:33:19 EST
KAP639,5217.452984254737,1500,-71.084801,42.421611,2018-11-26 13:37:20 EST
KAP24,5242.422737733598,1625,-71.085101,42.421921,2018-11-26 13:46:08 EST
KAP13,5239.446874833685,1575,-71.085663,42.422287,2018-11-26 13:50:17 EST
KAP617,5208.902060560138,1650,-71.085375,42.421984,2018-11-26 15:45:43 EST
KAP1015,5145.1549751826315,1700,-71.085184,42.421611,2018-11-26 15:49:18 EST
KAP331,5157.4668126853585,1600,-71.084864,42.421425,2018-11-26 15:54:13 EST
KAP5150,5217.110261355236,1700,-71.084727,42.421555,2018-11-26 16:26:53 EST
KAP345,5149.726270972225,1650,-71.085631,42.421937,2018-11-26 16:46:36 EST
KAP24,5228.994581548143,1625,-71.084851,42.421692,2018-11-26 16:58:27 EST
KAP531,5241.847892031178,1675,-71.084673,42.421611,2018-11-26 17:06:50 EST
KAP639,5427.937180023165,1600,-71.083715,42.421611,2018-11-26 17:13:51 EST
KAP73,5119.270663552468,1600,-71.08429,42.420822,2018-11-26 17:11:44 EST
RPA5932,4129.33554128926,725,-71.10771187758593,42.40246735226517,2018-11-29 07:59:19 EST
